digraph G{ 
	"0_1_2_2_2_1_1_2_1_1_2" [ shape = circle ]
	"0_1_2_2_2_1_1_2_1_1_1" [ shape = circle ]
	"0_1_2_2_2_1_1_1_2_1_2" [ shape = circle ]
	"0_1_2_2_2_1_1_1_2_1_1" [ shape = circle ]
	"0_1_1_1_2_1_1_1_1_2_2" [ shape = circle ]
	"0_1_1_1_2_1_1_1_1_2_1" [ shape = circle ]
	"0_1_1_1_2_1_1_1_1_1_2" [ shape = circle ]
	"0_1_1_1_2_1_1_1_1_1_1" [ shape = circle ]
	"0_1_2_2_2_2_2_2" [ shape = circle ]
	"0_1_2_2_2_2_2_1" [ shape = circle ]
	"0_1_2_2_2_1_1_2_1_2_1" [ shape = circle ]
	"vote_or_0_1_2_2_2_1_1_2_1_1" [ shape = cilinder ]
	"0_1_2_2_2_1_1_1_2_1" [ shape = trapezium ]
	"0_1_2_2_2_1_1_1_1" [ shape = circle ]
	"0_1_1_1_2_1_2_1_2_1_2" [ shape = circle ]
	"0_1_1_1_2_1_2_1_2_1_1" [ shape = circle ]
	"0_1_1_1_2_1_1_1_2_2_1" [ shape = circle ]
	"0_1_1_1_2_1_1_1_2_1_1" [ shape = circle ]
	"0_1_1_1_2_1_1_1_1_2" [ shape = trapezium ]
	"vote_or_0_1_1_1_2_1_1_1_1_1" [ shape = cilinder ]
	"0_1_2_2_2_2_2" [ shape = trapezium ]
	"0_1_2_2_2_2_1_1_1" [ shape = circle ]
	"0_1_2_2_2_1_1_2_1" [ shape = trapezium ]
	"vote_or_0_1_2_2_2_1_1_1" [ shape = cilinder ]
	"0_1_1_1_2_1_2_1_2_2_1" [ shape = circle ]
	"0_1_1_1_2_1_2_1_2_1" [ shape = cilinder ]
	"0_1_1_1_2_1_2_1_1_2_1" [ shape = circle ]
	"0_1_1_1_2_1_2_1_1_1_1" [ shape = circle ]
	"0_1_1_1_2_1_1_1_2" [ shape = cilinder ]
	"0_1_1_1_2_1_1_1_1" [ shape = cilinder ]
	"0_1_2_2_2_2" [ shape = cilinder ]
	"vote_or_0_1_2_2_2_1_1" [ shape = cilinder ]
	"0_1_1_1_2_1_2_1_2" [ shape = cilinder ]
	"0_1_1_1_2_1_2_1_1" [ shape = cilinder ]
	"0_1_1_1_2_1_1_2_1" [ shape = circle ]
	"vote_or_0_1_1_1_2_1_1_1" [ shape = cilinder ]
	"0_1_2_2_2" [ shape = trapezium ]
	"0_1_2_2_1_1_1" [ shape = circle ]
	"vote_or_0_1_1_1_2_1_2_1" [ shape = cilinder ]
	"0_1_1_1_2_1_1" [ shape = cilinder ]
	"0_1_2_2" [ shape = cilinder ]
	"0_1_2_1" [ shape = circle ]
	"0_1_1_1_2_1" [ shape = cilinder ]
	"0_1_1_1_1_1" [ shape = circle ]
	"0_1_2" [ shape = trapezium ]
	"vote_or_0_1_1_1" [ shape = cilinder ]
	"0_1" [ shape = cilinder ]
	"vote_or_0_1_2_2_2_1_1_2_1_1" -> "0_1_2_2_2_1_1_2_1_1_1"
	"vote_or_0_1_2_2_2_1_1_2_1_1" -> "0_1_2_2_2_1_1_2_1_1_2"
	"0_1_2_2_2_1_1_1_2_1" -> "0_1_2_2_2_1_1_1_2_1_1"
	"0_1_2_2_2_1_1_1_2_1" -> "0_1_2_2_2_1_1_1_2_1_2"
	"0_1_1_1_2_1_1_1_1_2" -> "0_1_1_1_2_1_1_1_1_2_1"
	"0_1_1_1_2_1_1_1_1_2" -> "0_1_1_1_2_1_1_1_1_2_2"
	"vote_or_0_1_1_1_2_1_1_1_1_1" -> "0_1_1_1_2_1_1_1_1_1_1"
	"vote_or_0_1_1_1_2_1_1_1_1_1" -> "0_1_1_1_2_1_1_1_1_1_2"
	"0_1_2_2_2_2_2" -> "0_1_2_2_2_2_2_1"
	"0_1_2_2_2_2_2" -> "0_1_2_2_2_2_2_2"
	"0_1_2_2_2_1_1_2_1" -> "vote_or_0_1_2_2_2_1_1_2_1_1"
	"0_1_2_2_2_1_1_2_1" -> "0_1_2_2_2_1_1_2_1_2_1"
	"vote_or_0_1_2_2_2_1_1_1" -> "0_1_2_2_2_1_1_1_1"
	"vote_or_0_1_2_2_2_1_1_1" -> "0_1_2_2_2_1_1_1_2_1"
	"0_1_1_1_2_1_2_1_2_1" -> "0_1_1_1_2_1_2_1_2_1_1"
	"0_1_1_1_2_1_2_1_2_1" -> "0_1_1_1_2_1_2_1_2_1_2"
	"0_1_1_1_2_1_1_1_2" -> "0_1_1_1_2_1_1_1_2_1_1"
	"0_1_1_1_2_1_1_1_2" -> "0_1_1_1_2_1_1_1_2_2_1"
	"0_1_1_1_2_1_1_1_1" -> "vote_or_0_1_1_1_2_1_1_1_1_1"
	"0_1_1_1_2_1_1_1_1" -> "0_1_1_1_2_1_1_1_1_2"
	"0_1_2_2_2_2" -> "0_1_2_2_2_2_1_1_1"
	"0_1_2_2_2_2" -> "0_1_2_2_2_2_2"
	"vote_or_0_1_2_2_2_1_1" -> "vote_or_0_1_2_2_2_1_1_1"
	"vote_or_0_1_2_2_2_1_1" -> "0_1_2_2_2_1_1_2_1"
	"0_1_1_1_2_1_2_1_2" -> "0_1_1_1_2_1_2_1_2_1"
	"0_1_1_1_2_1_2_1_2" -> "0_1_1_1_2_1_2_1_2_2_1"
	"0_1_1_1_2_1_2_1_1" -> "0_1_1_1_2_1_2_1_1_1_1"
	"0_1_1_1_2_1_2_1_1" -> "0_1_1_1_2_1_2_1_1_2_1"
	"vote_or_0_1_1_1_2_1_1_1" -> "0_1_1_1_2_1_1_1_1"
	"vote_or_0_1_1_1_2_1_1_1" -> "0_1_1_1_2_1_1_1_2"
	"0_1_2_2_2" -> "vote_or_0_1_2_2_2_1_1"
	"0_1_2_2_2" -> "0_1_2_2_2_2"
	"vote_or_0_1_1_1_2_1_2_1" -> "0_1_1_1_2_1_2_1_1"
	"vote_or_0_1_1_1_2_1_2_1" -> "0_1_1_1_2_1_2_1_2"
	"0_1_1_1_2_1_1" -> "vote_or_0_1_1_1_2_1_1_1"
	"0_1_1_1_2_1_1" -> "0_1_1_1_2_1_1_2_1"
	"0_1_2_2" -> "0_1_2_2_1_1_1"
	"0_1_2_2" -> "0_1_2_2_2"
	"0_1_1_1_2_1" -> "0_1_1_1_2_1_1"
	"0_1_1_1_2_1" -> "vote_or_0_1_1_1_2_1_2_1"
	"0_1_2" -> "0_1_2_1"
	"0_1_2" -> "0_1_2_2"
	"vote_or_0_1_1_1" -> "0_1_1_1_1_1"
	"vote_or_0_1_1_1" -> "0_1_1_1_2_1"
	"0_1" -> "vote_or_0_1_1_1"
	"0_1" -> "0_1_2"
}