digraph G{ 
	"0_3_3_2_3_4" [ shape = circle ]
	"0_3_3_2_3_3" [ shape = circle ]
	"0_3_3_2_3_2" [ shape = circle ]
	"0_3_3_2_3_1" [ shape = circle ]
	"0_3_3_2_2_3" [ shape = circle ]
	"0_3_3_2_2_2" [ shape = circle ]
	"0_3_2_3_3_2" [ shape = circle ]
	"0_3_2_3_3_1" [ shape = circle ]
	"0_3_2_3_1_4" [ shape = circle ]
	"0_3_2_3_1_3" [ shape = circle ]
	"0_3_2_3_1_2" [ shape = circle ]
	"0_3_2_3_1_1" [ shape = circle ]
	"0_3_1_1_2_3" [ shape = circle ]
	"0_3_1_1_2_2" [ shape = circle ]
	"and_r_0_3_3_2_3" [ shape = trapezium ]
	"and_l_0_3_3_2_3" [ shape = trapezium ]
	"and_r_0_3_3_2_2" [ shape = trapezium ]
	"0_3_3_2_2_1" [ shape = circle ]
	"0_3_2_3_3" [ shape = trapezium ]
	"0_3_2_3_2" [ shape = circle ]
	"and_r_0_3_2_3_1" [ shape = trapezium ]
	"and_l_0_3_2_3_1" [ shape = trapezium ]
	"0_3_1_2_1_3" [ shape = circle ]
	"0_3_1_2_1_2" [ shape = circle ]
	"0_3_1_1_3_2" [ shape = circle ]
	"0_3_1_1_3_1" [ shape = circle ]
	"and_r_0_3_1_1_2" [ shape = trapezium ]
	"0_3_1_1_2_1" [ shape = circle ]
	"0_3_1_1_1_3" [ shape = circle ]
	"0_3_1_1_1_2" [ shape = circle ]
	"and__0_3_3_2_3" [ shape = trapezium ]
	"and__0_3_3_2_2" [ shape = trapezium ]
	"and_r_0_3_2_3" [ shape = trapezium ]
	"and__0_3_2_3_1" [ shape = trapezium ]
	"0_3_1_2_3_1" [ shape = circle ]
	"0_3_1_2_2_1" [ shape = circle ]
	"and_r_0_3_1_2_1" [ shape = trapezium ]
	"0_3_1_2_1_1" [ shape = circle ]
	"0_3_1_1_3" [ shape = trapezium ]
	"and__0_3_1_1_2" [ shape = trapezium ]
	"and_r_0_3_1_1_1" [ shape = trapezium ]
	"0_3_1_1_1_1" [ shape = circle ]
	"0_2_1_3_1_3" [ shape = circle ]
	"0_2_1_3_1_2" [ shape = circle ]
	"0_3_4_3" [ shape = circle ]
	"0_3_4_2" [ shape = circle ]
	"and_r_0_3_3_2" [ shape = trapezium ]
	"0_3_3_2_1_1" [ shape = circle ]
	"and__0_3_2_3" [ shape = trapezium ]
	"0_3_2_2_1" [ shape = circle ]
	"and_r_0_3_1_2" [ shape = trapezium ]
	"and__0_3_1_2_1" [ shape = trapezium ]
	"and_r_0_3_1_1" [ shape = trapezium ]
	"and__0_3_1_1_1" [ shape = trapezium ]
	"0_2_1_3_2_2" [ shape = circle ]
	"0_2_1_3_2_1" [ shape = circle ]
	"and_r_0_2_1_3_1" [ shape = trapezium ]
	"0_2_1_3_1_1" [ shape = circle ]
	"and_r_0_3_4" [ shape = trapezium ]
	"0_3_4_1" [ shape = circle ]
	"and__0_3_3_2" [ shape = trapezium ]
	"0_3_3_1" [ shape = circle ]
	"and_r_0_3_2" [ shape = trapezium ]
	"0_3_2_1" [ shape = circle ]
	"and__0_3_1_2" [ shape = trapezium ]
	"and__0_3_1_1" [ shape = trapezium ]
	"0_2_1_3_2" [ shape = trapezium ]
	"and__0_2_1_3_1" [ shape = trapezium ]
	"0_2_1_1_1_2" [ shape = circle ]
	"0_2_1_1_1_1" [ shape = circle ]
	"0_1_1_1_2_4" [ shape = circle ]
	"0_1_1_1_2_3" [ shape = circle ]
	"0_1_1_1_2_2" [ shape = circle ]
	"0_1_1_1_2_1" [ shape = circle ]
	"and__0_3_4" [ shape = trapezium ]
	"0_3_3" [ shape = trapezium ]
	"and__0_3_2" [ shape = trapezium ]
	"0_3_1" [ shape = trapezium ]
	"0_2_1_4_1_1" [ shape = circle ]
	"0_2_1_3" [ shape = trapezium ]
	"0_2_1_2" [ shape = circle ]
	"0_2_1_1_1" [ shape = trapezium ]
	"and_r_0_1_1_1_2" [ shape = trapezium ]
	"and_l_0_1_1_1_2" [ shape = trapezium ]
	"0_1_1_1_1_2" [ shape = circle ]
	"0_1_1_1_1_1" [ shape = circle ]
	"and_r_0_3" [ shape = trapezium ]
	"and_l_0_3" [ shape = trapezium ]
	"and_r_0_2_1" [ shape = trapezium ]
	"and_l_0_2_1" [ shape = trapezium ]
	"0_1_1_1_4" [ shape = circle ]
	"0_1_1_1_3_1" [ shape = circle ]
	"and__0_1_1_1_2" [ shape = trapezium ]
	"0_1_1_1_1" [ shape = trapezium ]
	"and__0_3" [ shape = trapezium ]
	"and__0_2_1" [ shape = trapezium ]
	"and_r_0_1_1_1" [ shape = trapezium ]
	"and_l_0_1_1_1" [ shape = trapezium ]
	"and_r_0" [ shape = trapezium ]
	"and__0_1_1_1" [ shape = trapezium ]
	"and__0" [ shape = trapezium ]
	"and_r_0_3_3_2_3" -> "0_3_3_2_3_3"
	"and_r_0_3_3_2_3" -> "0_3_3_2_3_4"
	"and_l_0_3_3_2_3" -> "0_3_3_2_3_1"
	"and_l_0_3_3_2_3" -> "0_3_3_2_3_2"
	"and_r_0_3_3_2_2" -> "0_3_3_2_2_2"
	"and_r_0_3_3_2_2" -> "0_3_3_2_2_3"
	"0_3_2_3_3" -> "0_3_2_3_3_1"
	"0_3_2_3_3" -> "0_3_2_3_3_2"
	"and_r_0_3_2_3_1" -> "0_3_2_3_1_3"
	"and_r_0_3_2_3_1" -> "0_3_2_3_1_4"
	"and_l_0_3_2_3_1" -> "0_3_2_3_1_1"
	"and_l_0_3_2_3_1" -> "0_3_2_3_1_2"
	"and_r_0_3_1_1_2" -> "0_3_1_1_2_2"
	"and_r_0_3_1_1_2" -> "0_3_1_1_2_3"
	"and__0_3_3_2_3" -> "and_l_0_3_3_2_3"
	"and__0_3_3_2_3" -> "and_r_0_3_3_2_3"
	"and__0_3_3_2_2" -> "0_3_3_2_2_1"
	"and__0_3_3_2_2" -> "and_r_0_3_3_2_2"
	"and_r_0_3_2_3" -> "0_3_2_3_2"
	"and_r_0_3_2_3" -> "0_3_2_3_3"
	"and__0_3_2_3_1" -> "and_l_0_3_2_3_1"
	"and__0_3_2_3_1" -> "and_r_0_3_2_3_1"
	"and_r_0_3_1_2_1" -> "0_3_1_2_1_2"
	"and_r_0_3_1_2_1" -> "0_3_1_2_1_3"
	"0_3_1_1_3" -> "0_3_1_1_3_1"
	"0_3_1_1_3" -> "0_3_1_1_3_2"
	"and__0_3_1_1_2" -> "0_3_1_1_2_1"
	"and__0_3_1_1_2" -> "and_r_0_3_1_1_2"
	"and_r_0_3_1_1_1" -> "0_3_1_1_1_2"
	"and_r_0_3_1_1_1" -> "0_3_1_1_1_3"
	"and_r_0_3_3_2" -> "and__0_3_3_2_2"
	"and_r_0_3_3_2" -> "and__0_3_3_2_3"
	"and__0_3_2_3" -> "and__0_3_2_3_1"
	"and__0_3_2_3" -> "and_r_0_3_2_3"
	"and_r_0_3_1_2" -> "0_3_1_2_2_1"
	"and_r_0_3_1_2" -> "0_3_1_2_3_1"
	"and__0_3_1_2_1" -> "0_3_1_2_1_1"
	"and__0_3_1_2_1" -> "and_r_0_3_1_2_1"
	"and_r_0_3_1_1" -> "and__0_3_1_1_2"
	"and_r_0_3_1_1" -> "0_3_1_1_3"
	"and__0_3_1_1_1" -> "0_3_1_1_1_1"
	"and__0_3_1_1_1" -> "and_r_0_3_1_1_1"
	"and_r_0_2_1_3_1" -> "0_2_1_3_1_2"
	"and_r_0_2_1_3_1" -> "0_2_1_3_1_3"
	"and_r_0_3_4" -> "0_3_4_2"
	"and_r_0_3_4" -> "0_3_4_3"
	"and__0_3_3_2" -> "0_3_3_2_1_1"
	"and__0_3_3_2" -> "and_r_0_3_3_2"
	"and_r_0_3_2" -> "0_3_2_2_1"
	"and_r_0_3_2" -> "and__0_3_2_3"
	"and__0_3_1_2" -> "and__0_3_1_2_1"
	"and__0_3_1_2" -> "and_r_0_3_1_2"
	"and__0_3_1_1" -> "and__0_3_1_1_1"
	"and__0_3_1_1" -> "and_r_0_3_1_1"
	"0_2_1_3_2" -> "0_2_1_3_2_1"
	"0_2_1_3_2" -> "0_2_1_3_2_2"
	"and__0_2_1_3_1" -> "0_2_1_3_1_1"
	"and__0_2_1_3_1" -> "and_r_0_2_1_3_1"
	"and__0_3_4" -> "0_3_4_1"
	"and__0_3_4" -> "and_r_0_3_4"
	"0_3_3" -> "0_3_3_1"
	"0_3_3" -> "and__0_3_3_2"
	"and__0_3_2" -> "0_3_2_1"
	"and__0_3_2" -> "and_r_0_3_2"
	"0_3_1" -> "and__0_3_1_1"
	"0_3_1" -> "and__0_3_1_2"
	"0_2_1_3" -> "and__0_2_1_3_1"
	"0_2_1_3" -> "0_2_1_3_2"
	"0_2_1_1_1" -> "0_2_1_1_1_1"
	"0_2_1_1_1" -> "0_2_1_1_1_2"
	"and_r_0_1_1_1_2" -> "0_1_1_1_2_3"
	"and_r_0_1_1_1_2" -> "0_1_1_1_2_4"
	"and_l_0_1_1_1_2" -> "0_1_1_1_2_1"
	"and_l_0_1_1_1_2" -> "0_1_1_1_2_2"
	"and_r_0_3" -> "0_3_3"
	"and_r_0_3" -> "and__0_3_4"
	"and_l_0_3" -> "0_3_1"
	"and_l_0_3" -> "and__0_3_2"
	"and_r_0_2_1" -> "0_2_1_3"
	"and_r_0_2_1" -> "0_2_1_4_1_1"
	"and_l_0_2_1" -> "0_2_1_1_1"
	"and_l_0_2_1" -> "0_2_1_2"
	"and__0_1_1_1_2" -> "and_l_0_1_1_1_2"
	"and__0_1_1_1_2" -> "and_r_0_1_1_1_2"
	"0_1_1_1_1" -> "0_1_1_1_1_1"
	"0_1_1_1_1" -> "0_1_1_1_1_2"
	"and__0_3" -> "and_l_0_3"
	"and__0_3" -> "and_r_0_3"
	"and__0_2_1" -> "and_l_0_2_1"
	"and__0_2_1" -> "and_r_0_2_1"
	"and_r_0_1_1_1" -> "0_1_1_1_3_1"
	"and_r_0_1_1_1" -> "0_1_1_1_4"
	"and_l_0_1_1_1" -> "0_1_1_1_1"
	"and_l_0_1_1_1" -> "and__0_1_1_1_2"
	"and_r_0" -> "and__0_2_1"
	"and_r_0" -> "and__0_3"
	"and__0_1_1_1" -> "and_l_0_1_1_1"
	"and__0_1_1_1" -> "and_r_0_1_1_1"
	"and__0" -> "and__0_1_1_1"
	"and__0" -> "and_r_0"
}