digraph G{ 
	"0_1_4_2_2_4" [ shape = circle ]
	"0_1_4_2_2_3" [ shape = circle ]
	"0_1_4_2_2_2" [ shape = circle ]
	"0_1_4_2_2_1" [ shape = circle ]
	"0_1_3_4_3_3" [ shape = circle ]
	"0_1_3_4_3_2" [ shape = circle ]
	"0_1_3_4_2_3" [ shape = circle ]
	"0_1_3_4_2_2" [ shape = circle ]
	"0_1_3_4_1_4" [ shape = circle ]
	"0_1_3_4_1_3" [ shape = circle ]
	"0_1_3_4_1_2" [ shape = circle ]
	"0_1_3_4_1_1" [ shape = circle ]
	"0_1_3_2_3_3" [ shape = circle ]
	"0_1_3_2_3_2" [ shape = circle ]
	"0_1_2_3_3_3" [ shape = circle ]
	"0_1_2_3_3_2" [ shape = circle ]
	"0_1_4_2_3_2" [ shape = circle ]
	"0_1_4_2_3_1" [ shape = circle ]
	"or_r_0_1_4_2_2" [ shape = cilinder ]
	"or_l_0_1_4_2_2" [ shape = cilinder ]
	"0_1_4_1_2_3" [ shape = circle ]
	"0_1_4_1_2_2" [ shape = circle ]
	"or_r_0_1_3_4_3" [ shape = cilinder ]
	"0_1_3_4_3_1" [ shape = circle ]
	"or_r_0_1_3_4_2" [ shape = cilinder ]
	"0_1_3_4_2_1" [ shape = circle ]
	"or_r_0_1_3_4_1" [ shape = cilinder ]
	"or_l_0_1_3_4_1" [ shape = cilinder ]
	"or_r_0_1_3_2_3" [ shape = cilinder ]
	"0_1_3_2_3_1" [ shape = circle ]
	"or_r_0_1_2_3_3" [ shape = cilinder ]
	"0_1_2_3_3_1" [ shape = circle ]
	"0_1_2_2_4_2" [ shape = circle ]
	"0_1_2_2_4_1" [ shape = circle ]
	"0_1_2_2_3_2" [ shape = circle ]
	"0_1_2_2_3_1" [ shape = circle ]
	"0_1_2_2_2_2" [ shape = circle ]
	"0_1_2_2_2_1" [ shape = circle ]
	"0_1_1_1_1_4" [ shape = circle ]
	"0_1_1_1_1_3" [ shape = circle ]
	"0_1_1_1_1_2" [ shape = circle ]
	"0_1_1_1_1_1" [ shape = circle ]
	"0_1_4_2_3" [ shape = cilinder ]
	"or__0_1_4_2_2" [ shape = cilinder ]
	"or_r_0_1_4_1_2" [ shape = cilinder ]
	"0_1_4_1_2_1" [ shape = circle ]
	"0_1_3_4_4" [ shape = circle ]
	"or__0_1_3_4_3" [ shape = cilinder ]
	"or__0_1_3_4_2" [ shape = cilinder ]
	"or__0_1_3_4_1" [ shape = cilinder ]
	"or__0_1_3_2_3" [ shape = cilinder ]
	"0_1_3_2_2" [ shape = circle ]
	"or__0_1_2_3_3" [ shape = cilinder ]
	"0_1_2_3_2" [ shape = circle ]
	"0_1_2_3_1_2" [ shape = circle ]
	"0_1_2_3_1_1" [ shape = circle ]
	"0_1_2_2_4" [ shape = cilinder ]
	"0_1_2_2_3" [ shape = cilinder ]
	"0_1_2_2_2" [ shape = cilinder ]
	"0_1_2_2_1_1" [ shape = circle ]
	"0_1_1_1_4_2" [ shape = circle ]
	"0_1_1_1_4_1" [ shape = circle ]
	"0_1_1_1_3_2" [ shape = circle ]
	"0_1_1_1_3_1" [ shape = circle ]
	"or_r_0_1_1_1_1" [ shape = cilinder ]
	"or_l_0_1_1_1_1" [ shape = cilinder ]
	"0_1_4_4_1_2" [ shape = circle ]
	"0_1_4_4_1_1" [ shape = circle ]
	"or_r_0_1_4_2" [ shape = cilinder ]
	"0_1_4_2_1" [ shape = circle ]
	"or__0_1_4_1_2" [ shape = cilinder ]
	"0_1_4_1_1" [ shape = circle ]
	"or_r_0_1_3_4" [ shape = cilinder ]
	"or_l_0_1_3_4" [ shape = cilinder ]
	"or_r_0_1_3_2" [ shape = cilinder ]
	"0_1_3_2_1_1" [ shape = circle ]
	"or_r_0_1_2_3" [ shape = cilinder ]
	"0_1_2_3_1" [ shape = cilinder ]
	"or_r_0_1_2_2" [ shape = cilinder ]
	"or_l_0_1_2_2" [ shape = cilinder ]
	"0_1_1_1_4" [ shape = cilinder ]
	"0_1_1_1_3" [ shape = cilinder ]
	"0_1_1_1_2_1" [ shape = circle ]
	"or__0_1_1_1_1" [ shape = cilinder ]
	"0_1_4_4_1" [ shape = cilinder ]
	"0_1_4_3" [ shape = circle ]
	"or__0_1_4_2" [ shape = cilinder ]
	"0_1_4_1" [ shape = cilinder ]
	"or__0_1_3_4" [ shape = cilinder ]
	"0_1_3_3_1" [ shape = circle ]
	"or__0_1_3_2" [ shape = cilinder ]
	"0_1_3_1" [ shape = circle ]
	"or__0_1_2_3" [ shape = cilinder ]
	"or__0_1_2_2" [ shape = cilinder ]
	"0_1_2_1_2" [ shape = circle ]
	"0_1_2_1_1" [ shape = circle ]
	"0_1_1_3_1" [ shape = circle ]
	"0_1_1_2" [ shape = circle ]
	"or_r_0_1_1_1" [ shape = cilinder ]
	"or_l_0_1_1_1" [ shape = cilinder ]
	"or_r_0_1_4" [ shape = cilinder ]
	"or_l_0_1_4" [ shape = cilinder ]
	"or_r_0_1_3" [ shape = cilinder ]
	"or_l_0_1_3" [ shape = cilinder ]
	"or_r_0_1_2" [ shape = cilinder ]
	"0_1_2_1" [ shape = cilinder ]
	"or_r_0_1_1" [ shape = cilinder ]
	"or__0_1_1_1" [ shape = cilinder ]
	"or__0_1_4" [ shape = cilinder ]
	"or__0_1_3" [ shape = cilinder ]
	"or__0_1_2" [ shape = cilinder ]
	"or__0_1_1" [ shape = cilinder ]
	"or_r_0_1" [ shape = cilinder ]
	"or_l_0_1" [ shape = cilinder ]
	"or__0_1" [ shape = cilinder ]
	"or_r_0_1_4_2_2" -> "0_1_4_2_2_3"
	"or_r_0_1_4_2_2" -> "0_1_4_2_2_4"
	"or_l_0_1_4_2_2" -> "0_1_4_2_2_1"
	"or_l_0_1_4_2_2" -> "0_1_4_2_2_2"
	"or_r_0_1_3_4_3" -> "0_1_3_4_3_2"
	"or_r_0_1_3_4_3" -> "0_1_3_4_3_3"
	"or_r_0_1_3_4_2" -> "0_1_3_4_2_2"
	"or_r_0_1_3_4_2" -> "0_1_3_4_2_3"
	"or_r_0_1_3_4_1" -> "0_1_3_4_1_3"
	"or_r_0_1_3_4_1" -> "0_1_3_4_1_4"
	"or_l_0_1_3_4_1" -> "0_1_3_4_1_1"
	"or_l_0_1_3_4_1" -> "0_1_3_4_1_2"
	"or_r_0_1_3_2_3" -> "0_1_3_2_3_2"
	"or_r_0_1_3_2_3" -> "0_1_3_2_3_3"
	"or_r_0_1_2_3_3" -> "0_1_2_3_3_2"
	"or_r_0_1_2_3_3" -> "0_1_2_3_3_3"
	"0_1_4_2_3" -> "0_1_4_2_3_1"
	"0_1_4_2_3" -> "0_1_4_2_3_2"
	"or__0_1_4_2_2" -> "or_l_0_1_4_2_2"
	"or__0_1_4_2_2" -> "or_r_0_1_4_2_2"
	"or_r_0_1_4_1_2" -> "0_1_4_1_2_2"
	"or_r_0_1_4_1_2" -> "0_1_4_1_2_3"
	"or__0_1_3_4_3" -> "0_1_3_4_3_1"
	"or__0_1_3_4_3" -> "or_r_0_1_3_4_3"
	"or__0_1_3_4_2" -> "0_1_3_4_2_1"
	"or__0_1_3_4_2" -> "or_r_0_1_3_4_2"
	"or__0_1_3_4_1" -> "or_l_0_1_3_4_1"
	"or__0_1_3_4_1" -> "or_r_0_1_3_4_1"
	"or__0_1_3_2_3" -> "0_1_3_2_3_1"
	"or__0_1_3_2_3" -> "or_r_0_1_3_2_3"
	"or__0_1_2_3_3" -> "0_1_2_3_3_1"
	"or__0_1_2_3_3" -> "or_r_0_1_2_3_3"
	"0_1_2_2_4" -> "0_1_2_2_4_1"
	"0_1_2_2_4" -> "0_1_2_2_4_2"
	"0_1_2_2_3" -> "0_1_2_2_3_1"
	"0_1_2_2_3" -> "0_1_2_2_3_2"
	"0_1_2_2_2" -> "0_1_2_2_2_1"
	"0_1_2_2_2" -> "0_1_2_2_2_2"
	"or_r_0_1_1_1_1" -> "0_1_1_1_1_3"
	"or_r_0_1_1_1_1" -> "0_1_1_1_1_4"
	"or_l_0_1_1_1_1" -> "0_1_1_1_1_1"
	"or_l_0_1_1_1_1" -> "0_1_1_1_1_2"
	"or_r_0_1_4_2" -> "or__0_1_4_2_2"
	"or_r_0_1_4_2" -> "0_1_4_2_3"
	"or__0_1_4_1_2" -> "0_1_4_1_2_1"
	"or__0_1_4_1_2" -> "or_r_0_1_4_1_2"
	"or_r_0_1_3_4" -> "or__0_1_3_4_3"
	"or_r_0_1_3_4" -> "0_1_3_4_4"
	"or_l_0_1_3_4" -> "or__0_1_3_4_1"
	"or_l_0_1_3_4" -> "or__0_1_3_4_2"
	"or_r_0_1_3_2" -> "0_1_3_2_2"
	"or_r_0_1_3_2" -> "or__0_1_3_2_3"
	"or_r_0_1_2_3" -> "0_1_2_3_2"
	"or_r_0_1_2_3" -> "or__0_1_2_3_3"
	"0_1_2_3_1" -> "0_1_2_3_1_1"
	"0_1_2_3_1" -> "0_1_2_3_1_2"
	"or_r_0_1_2_2" -> "0_1_2_2_3"
	"or_r_0_1_2_2" -> "0_1_2_2_4"
	"or_l_0_1_2_2" -> "0_1_2_2_1_1"
	"or_l_0_1_2_2" -> "0_1_2_2_2"
	"0_1_1_1_4" -> "0_1_1_1_4_1"
	"0_1_1_1_4" -> "0_1_1_1_4_2"
	"0_1_1_1_3" -> "0_1_1_1_3_1"
	"0_1_1_1_3" -> "0_1_1_1_3_2"
	"or__0_1_1_1_1" -> "or_l_0_1_1_1_1"
	"or__0_1_1_1_1" -> "or_r_0_1_1_1_1"
	"0_1_4_4_1" -> "0_1_4_4_1_1"
	"0_1_4_4_1" -> "0_1_4_4_1_2"
	"or__0_1_4_2" -> "0_1_4_2_1"
	"or__0_1_4_2" -> "or_r_0_1_4_2"
	"0_1_4_1" -> "0_1_4_1_1"
	"0_1_4_1" -> "or__0_1_4_1_2"
	"or__0_1_3_4" -> "or_l_0_1_3_4"
	"or__0_1_3_4" -> "or_r_0_1_3_4"
	"or__0_1_3_2" -> "0_1_3_2_1_1"
	"or__0_1_3_2" -> "or_r_0_1_3_2"
	"or__0_1_2_3" -> "0_1_2_3_1"
	"or__0_1_2_3" -> "or_r_0_1_2_3"
	"or__0_1_2_2" -> "or_l_0_1_2_2"
	"or__0_1_2_2" -> "or_r_0_1_2_2"
	"or_r_0_1_1_1" -> "0_1_1_1_3"
	"or_r_0_1_1_1" -> "0_1_1_1_4"
	"or_l_0_1_1_1" -> "or__0_1_1_1_1"
	"or_l_0_1_1_1" -> "0_1_1_1_2_1"
	"or_r_0_1_4" -> "0_1_4_3"
	"or_r_0_1_4" -> "0_1_4_4_1"
	"or_l_0_1_4" -> "0_1_4_1"
	"or_l_0_1_4" -> "or__0_1_4_2"
	"or_r_0_1_3" -> "0_1_3_3_1"
	"or_r_0_1_3" -> "or__0_1_3_4"
	"or_l_0_1_3" -> "0_1_3_1"
	"or_l_0_1_3" -> "or__0_1_3_2"
	"or_r_0_1_2" -> "or__0_1_2_2"
	"or_r_0_1_2" -> "or__0_1_2_3"
	"0_1_2_1" -> "0_1_2_1_1"
	"0_1_2_1" -> "0_1_2_1_2"
	"or_r_0_1_1" -> "0_1_1_2"
	"or_r_0_1_1" -> "0_1_1_3_1"
	"or__0_1_1_1" -> "or_l_0_1_1_1"
	"or__0_1_1_1" -> "or_r_0_1_1_1"
	"or__0_1_4" -> "or_l_0_1_4"
	"or__0_1_4" -> "or_r_0_1_4"
	"or__0_1_3" -> "or_l_0_1_3"
	"or__0_1_3" -> "or_r_0_1_3"
	"or__0_1_2" -> "0_1_2_1"
	"or__0_1_2" -> "or_r_0_1_2"
	"or__0_1_1" -> "or__0_1_1_1"
	"or__0_1_1" -> "or_r_0_1_1"
	"or_r_0_1" -> "or__0_1_3"
	"or_r_0_1" -> "or__0_1_4"
	"or_l_0_1" -> "or__0_1_1"
	"or_l_0_1" -> "or__0_1_2"
	"or__0_1" -> "or_l_0_1"
	"or__0_1" -> "or_r_0_1"
}