digraph G{ 
	"0_1_1_2_1_3" [ shape = circle ]
	"0_1_1_2_1_2" [ shape = circle ]
	"and_r_0_1_1_2_1" [ shape = trapezium ]
	"0_1_1_2_1_1" [ shape = circle ]
	"0_1_1_3" [ shape = circle ]
	"and__0_1_1_2_1" [ shape = trapezium ]
	"0_1_1_1_2" [ shape = circle ]
	"0_1_1_1_1_1" [ shape = circle ]
	"and_r_0_1_1" [ shape = trapezium ]
	"0_1_1_1" [ shape = trapezium ]
	"0_1_2" [ shape = circle ]
	"and__0_1_1" [ shape = trapezium ]
	"0_1" [ shape = trapezium ]
	"and_r_0_1_1_2_1" -> "0_1_1_2_1_2"
	"and_r_0_1_1_2_1" -> "0_1_1_2_1_3"
	"and__0_1_1_2_1" -> "0_1_1_2_1_1"
	"and__0_1_1_2_1" -> "and_r_0_1_1_2_1"
	"and_r_0_1_1" -> "and__0_1_1_2_1"
	"and_r_0_1_1" -> "0_1_1_3"
	"0_1_1_1" -> "0_1_1_1_1_1"
	"0_1_1_1" -> "0_1_1_1_2"
	"and__0_1_1" -> "0_1_1_1"
	"and__0_1_1" -> "and_r_0_1_1"
	"0_1" -> "and__0_1_1"
	"0_1" -> "0_1_2"
}