digraph G{ 
	"0_2_1_3_1_3" [ shape = circle ]
	"0_2_1_3_1_2" [ shape = circle ]
	"and_r_0_2_1_3_1" [ shape = trapezium ]
	"0_2_1_3_1_1" [ shape = circle ]
	"0_2_1_3_2" [ shape = circle ]
	"and__0_2_1_3_1" [ shape = trapezium ]
	"0_2_1_4_1" [ shape = circle ]
	"0_2_1_3" [ shape = trapezium ]
	"0_2_1_2_1" [ shape = circle ]
	"0_2_1_1_1" [ shape = circle ]
	"and_r_0_2_1" [ shape = trapezium ]
	"and_l_0_2_1" [ shape = trapezium ]
	"and__0_2_1" [ shape = trapezium ]
	"0_1" [ shape = circle ]
	"0" [ shape = trapezium ]
	"and_r_0_2_1_3_1" -> "0_2_1_3_1_2"
	"and_r_0_2_1_3_1" -> "0_2_1_3_1_3"
	"and__0_2_1_3_1" -> "0_2_1_3_1_1"
	"and__0_2_1_3_1" -> "and_r_0_2_1_3_1"
	"0_2_1_3" -> "and__0_2_1_3_1"
	"0_2_1_3" -> "0_2_1_3_2"
	"and_r_0_2_1" -> "0_2_1_3"
	"and_r_0_2_1" -> "0_2_1_4_1"
	"and_l_0_2_1" -> "0_2_1_1_1"
	"and_l_0_2_1" -> "0_2_1_2_1"
	"and__0_2_1" -> "and_l_0_2_1"
	"and__0_2_1" -> "and_r_0_2_1"
	"0" -> "0_1"
	"0" -> "and__0_2_1"
}