digraph G{ 
	"0_2_1_3_2_4" [ shape = circle ]
	"0_2_1_3_2_3" [ shape = circle ]
	"0_2_1_3_2_2" [ shape = circle ]
	"0_2_1_3_2_1" [ shape = circle ]
	"0_2_2_2_3_4" [ shape = circle ]
	"0_2_2_2_3_3" [ shape = circle ]
	"0_2_2_2_3_2" [ shape = circle ]
	"0_2_2_2_3_1" [ shape = circle ]
	"or_r_vote_or_0_2_1_3_2" [ shape = cilinder ]
	"or_l_vote_or_0_2_1_3_2" [ shape = cilinder ]
	"0_2_1_3_1_3" [ shape = circle ]
	"0_2_1_3_1_2" [ shape = circle ]
	"or_r_0_2_2_2_3" [ shape = cilinder ]
	"or_l_0_2_2_2_3" [ shape = cilinder ]
	"0_2_2_2_1_4" [ shape = circle ]
	"0_2_2_2_1_3" [ shape = circle ]
	"0_2_2_2_1_2" [ shape = circle ]
	"0_2_2_2_1_1" [ shape = circle ]
	"0_2_1_3_3" [ shape = circle ]
	"or__vote_or_0_2_1_3_2" [ shape = cilinder ]
	"or_r_0_2_1_3_1" [ shape = cilinder ]
	"0_2_1_3_1_1" [ shape = circle ]
	"or__0_2_2_2_3" [ shape = cilinder ]
	"0_2_2_2_2_1" [ shape = circle ]
	"or_r_vote_or_0_2_2_2_1" [ shape = cilinder ]
	"or_l_vote_or_0_2_2_2_1" [ shape = cilinder ]
	"0_2_1_4_1_2" [ shape = circle ]
	"0_2_1_4_1_1" [ shape = circle ]
	"and_r_0_2_1_3" [ shape = trapezium ]
	"or__0_2_1_3_1" [ shape = cilinder ]
	"0_2_1_1_1_2" [ shape = circle ]
	"0_2_1_1_1_1" [ shape = circle ]
	"and_r_0_2_2_2" [ shape = trapezium ]
	"or__vote_or_0_2_2_2_1" [ shape = cilinder ]
	"0_2_1_4_1" [ shape = cilinder ]
	"and__0_2_1_3" [ shape = trapezium ]
	"0_2_1_2" [ shape = circle ]
	"vote_or_0_2_1_1_1" [ shape = cilinder ]
	"and__0_2_2_2" [ shape = trapezium ]
	"0_2_2_1" [ shape = circle ]
	"and_r_0_2_1" [ shape = trapezium ]
	"and_l_0_2_1" [ shape = trapezium ]
	"0_2_2" [ shape = cilinder ]
	"and__0_2_1" [ shape = trapezium ]
	"0_2" [ shape = trapezium ]
	"0_1" [ shape = circle ]
	"0" [ shape = trapezium ]
	"or_r_vote_or_0_2_1_3_2" -> "0_2_1_3_2_3"
	"or_r_vote_or_0_2_1_3_2" -> "0_2_1_3_2_4"
	"or_l_vote_or_0_2_1_3_2" -> "0_2_1_3_2_1"
	"or_l_vote_or_0_2_1_3_2" -> "0_2_1_3_2_2"
	"or_r_0_2_2_2_3" -> "0_2_2_2_3_3"
	"or_r_0_2_2_2_3" -> "0_2_2_2_3_4"
	"or_l_0_2_2_2_3" -> "0_2_2_2_3_1"
	"or_l_0_2_2_2_3" -> "0_2_2_2_3_2"
	"or__vote_or_0_2_1_3_2" -> "or_l_vote_or_0_2_1_3_2"
	"or__vote_or_0_2_1_3_2" -> "or_r_vote_or_0_2_1_3_2"
	"or_r_0_2_1_3_1" -> "0_2_1_3_1_2"
	"or_r_0_2_1_3_1" -> "0_2_1_3_1_3"
	"or__0_2_2_2_3" -> "or_l_0_2_2_2_3"
	"or__0_2_2_2_3" -> "or_r_0_2_2_2_3"
	"or_r_vote_or_0_2_2_2_1" -> "0_2_2_2_1_3"
	"or_r_vote_or_0_2_2_2_1" -> "0_2_2_2_1_4"
	"or_l_vote_or_0_2_2_2_1" -> "0_2_2_2_1_1"
	"or_l_vote_or_0_2_2_2_1" -> "0_2_2_2_1_2"
	"and_r_0_2_1_3" -> "or__vote_or_0_2_1_3_2"
	"and_r_0_2_1_3" -> "0_2_1_3_3"
	"or__0_2_1_3_1" -> "0_2_1_3_1_1"
	"or__0_2_1_3_1" -> "or_r_0_2_1_3_1"
	"and_r_0_2_2_2" -> "0_2_2_2_2_1"
	"and_r_0_2_2_2" -> "or__0_2_2_2_3"
	"or__vote_or_0_2_2_2_1" -> "or_l_vote_or_0_2_2_2_1"
	"or__vote_or_0_2_2_2_1" -> "or_r_vote_or_0_2_2_2_1"
	"0_2_1_4_1" -> "0_2_1_4_1_1"
	"0_2_1_4_1" -> "0_2_1_4_1_2"
	"and__0_2_1_3" -> "or__0_2_1_3_1"
	"and__0_2_1_3" -> "and_r_0_2_1_3"
	"vote_or_0_2_1_1_1" -> "0_2_1_1_1_1"
	"vote_or_0_2_1_1_1" -> "0_2_1_1_1_2"
	"and__0_2_2_2" -> "or__vote_or_0_2_2_2_1"
	"and__0_2_2_2" -> "and_r_0_2_2_2"
	"and_r_0_2_1" -> "and__0_2_1_3"
	"and_r_0_2_1" -> "0_2_1_4_1"
	"and_l_0_2_1" -> "vote_or_0_2_1_1_1"
	"and_l_0_2_1" -> "0_2_1_2"
	"0_2_2" -> "0_2_2_1"
	"0_2_2" -> "and__0_2_2_2"
	"and__0_2_1" -> "and_l_0_2_1"
	"and__0_2_1" -> "and_r_0_2_1"
	"0_2" -> "and__0_2_1"
	"0_2" -> "0_2_2"
	"0" -> "0_1"
	"0" -> "0_2"
}