digraph G{ 
	"0_1_4_3_1_4" [ shape = circle ]
	"0_1_4_3_1_3" [ shape = circle ]
	"0_1_4_3_1_2" [ shape = circle ]
	"0_1_4_3_1_1" [ shape = circle ]
	"0_1_4_3_2_2" [ shape = circle ]
	"0_1_4_3_2_1" [ shape = circle ]
	"or_r_0_1_4_3_1" [ shape = cilinder ]
	"or_l_0_1_4_3_1" [ shape = cilinder ]
	"0_1_4_2_1_4" [ shape = circle ]
	"0_1_4_2_1_3" [ shape = circle ]
	"0_1_4_2_1_2" [ shape = circle ]
	"0_1_4_2_1_1" [ shape = circle ]
	"0_1_4_3_2" [ shape = trapezium ]
	"or__0_1_4_3_1" [ shape = cilinder ]
	"0_1_3_2" [ shape = circle ]
	"0_1_3_1_1" [ shape = circle ]
	"or_r_0_1_4_2_1" [ shape = cilinder ]
	"or_l_0_1_4_2_1" [ shape = cilinder ]
	"vote_or_0_1_4_3" [ shape = cilinder ]
	"0_1_4_4_1_1" [ shape = circle ]
	"0_1_3" [ shape = trapezium ]
	"or__0_1_4_2_1" [ shape = cilinder ]
	"vote_or_0_1_4_4" [ shape = cilinder ]
	"0_1_4_2" [ shape = cilinder ]
	"vote_5_0_1_4" [ shape = trapezium ]
	"vote_4_0_1_4" [ shape = trapezium ]
	"vote_2_0_1_4" [ shape = trapezium ]
	"vote_1_0_1_4" [ shape = trapezium ]
	"or_rr_vote_or_0_1_4" [ shape = cilinder ]
	"vote_3_0_1_4" [ shape = trapezium ]
	"or_lr_vote_or_0_1_4" [ shape = cilinder ]
	"vote_0_0_1_4" [ shape = trapezium ]
	"or_r_vote_or_0_1_4" [ shape = cilinder ]
	"or_l_vote_or_0_1_4" [ shape = cilinder ]
	"or__vote_or_0_1_4" [ shape = cilinder ]
	"0_1_2" [ shape = circle ]
	"0_1_1" [ shape = circle ]
	"or_r_0_1" [ shape = cilinder ]
	"or_l_0_1" [ shape = cilinder ]
	"or__0_1" [ shape = cilinder ]
	"or_r_0_1_4_3_1" -> "0_1_4_3_1_3"
	"or_r_0_1_4_3_1" -> "0_1_4_3_1_4"
	"or_l_0_1_4_3_1" -> "0_1_4_3_1_1"
	"or_l_0_1_4_3_1" -> "0_1_4_3_1_2"
	"0_1_4_3_2" -> "0_1_4_3_2_1"
	"0_1_4_3_2" -> "0_1_4_3_2_2"
	"or__0_1_4_3_1" -> "or_l_0_1_4_3_1"
	"or__0_1_4_3_1" -> "or_r_0_1_4_3_1"
	"or_r_0_1_4_2_1" -> "0_1_4_2_1_3"
	"or_r_0_1_4_2_1" -> "0_1_4_2_1_4"
	"or_l_0_1_4_2_1" -> "0_1_4_2_1_1"
	"or_l_0_1_4_2_1" -> "0_1_4_2_1_2"
	"vote_or_0_1_4_3" -> "or__0_1_4_3_1"
	"vote_or_0_1_4_3" -> "0_1_4_3_2"
	"0_1_3" -> "0_1_3_1_1"
	"0_1_3" -> "0_1_3_2"
	"or__0_1_4_2_1" -> "or_l_0_1_4_2_1"
	"or__0_1_4_2_1" -> "or_r_0_1_4_2_1"
	"vote_or_0_1_4_4" -> "0_1_4_4_1_1"
	"vote_or_0_1_4_4" -> "vote_or_0_1_4_3"
	"0_1_4_2" -> "or__0_1_4_2_1"
	"0_1_4_2" -> "0_1_3"
	"vote_5_0_1_4" -> "vote_or_0_1_4_3"
	"vote_5_0_1_4" -> "vote_or_0_1_4_4"
	"vote_4_0_1_4" -> "0_1_4_2"
	"vote_4_0_1_4" -> "vote_or_0_1_4_4"
	"vote_2_0_1_4" -> "0_1_3"
	"vote_2_0_1_4" -> "vote_or_0_1_4_4"
	"vote_1_0_1_4" -> "0_1_3"
	"vote_1_0_1_4" -> "vote_or_0_1_4_3"
	"or_rr_vote_or_0_1_4" -> "vote_4_0_1_4"
	"or_rr_vote_or_0_1_4" -> "vote_5_0_1_4"
	"vote_3_0_1_4" -> "0_1_4_2"
	"vote_3_0_1_4" -> "vote_or_0_1_4_3"
	"or_lr_vote_or_0_1_4" -> "vote_1_0_1_4"
	"or_lr_vote_or_0_1_4" -> "vote_2_0_1_4"
	"vote_0_0_1_4" -> "0_1_3"
	"vote_0_0_1_4" -> "0_1_4_2"
	"or_r_vote_or_0_1_4" -> "vote_3_0_1_4"
	"or_r_vote_or_0_1_4" -> "or_rr_vote_or_0_1_4"
	"or_l_vote_or_0_1_4" -> "vote_0_0_1_4"
	"or_l_vote_or_0_1_4" -> "or_lr_vote_or_0_1_4"
	"or__vote_or_0_1_4" -> "or_l_vote_or_0_1_4"
	"or__vote_or_0_1_4" -> "or_r_vote_or_0_1_4"
	"or_r_0_1" -> "0_1_3"
	"or_r_0_1" -> "or__vote_or_0_1_4"
	"or_l_0_1" -> "0_1_1"
	"or_l_0_1" -> "0_1_2"
	"or__0_1" -> "or_l_0_1"
	"or__0_1" -> "or_r_0_1"
}