digraph G{ 
	"0_1_1_1" [ shape = circle ]
	"0_1_1_3" [ shape = circle ]
	"0_1_3" [ shape = circle ]
	"0_1_2" [ shape = circle ]
	"or_r_0_1_1" [ shape = cilinder ]
	"or_l_0_1_1" [ shape = cilinder ]
	"and_r_0_1" [ shape = trapezium ]
	"or__0_1_1" [ shape = cilinder ]
	"0_2_1" [ shape = circle ]
	"and__0_1" [ shape = trapezium ]
	"0" [ shape = trapezium ]
	"or_r_0_1_1" -> "0_1_1_3"
	"or_r_0_1_1" -> "0_1_1_1"
	"or_l_0_1_1" -> "0_1_1_1"
	"or_l_0_1_1" -> "0_1_1_1"
	"and_r_0_1" -> "0_1_2"
	"and_r_0_1" -> "0_1_3"
	"or__0_1_1" -> "or_l_0_1_1"
	"or__0_1_1" -> "or_r_0_1_1"
	"and__0_1" -> "or__0_1_1"
	"and__0_1" -> "and_r_0_1"
	"0" -> "and__0_1"
	"0" -> "0_2_1"
}