digraph G{ 
	"0_1_1_4_3_4" [ shape = circle ]
	"0_1_1_4_3_3" [ shape = circle ]
	"0_1_1_4_3_2" [ shape = circle ]
	"0_1_1_4_3_1" [ shape = circle ]
	"or_r_0_1_1_4_3" [ shape = cilinder ]
	"or_l_0_1_1_4_3" [ shape = cilinder ]
	"or__0_1_1_4_3" [ shape = cilinder ]
	"0_1_1_4_2" [ shape = circle ]
	"0_1_1_2_3_1" [ shape = circle ]
	"0_1_1_2_2" [ shape = circle ]
	"and_r_0_1_1_4" [ shape = trapezium ]
	"0_1_1_4_1" [ shape = circle ]
	"or_r_vote_or_0_1_1_2" [ shape = cilinder ]
	"0_1_1_2_1" [ shape = circle ]
	"and__0_1_1_4" [ shape = trapezium ]
	"0_1_1_3" [ shape = circle ]
	"or__vote_or_0_1_1_2" [ shape = cilinder ]
	"0_1_1_1" [ shape = circle ]
	"vote_5_0_1_1" [ shape = trapezium ]
	"vote_4_0_1_1" [ shape = trapezium ]
	"vote_2_0_1_1" [ shape = trapezium ]
	"vote_1_0_1_1" [ shape = trapezium ]
	"or_rr_vote_or_0_1_1" [ shape = cilinder ]
	"vote_3_0_1_1" [ shape = trapezium ]
	"or_lr_vote_or_0_1_1" [ shape = cilinder ]
	"vote_0_0_1_1" [ shape = trapezium ]
	"or_r_vote_or_0_1_1" [ shape = cilinder ]
	"or_l_vote_or_0_1_1" [ shape = cilinder ]
	"or__vote_or_0_1_1" [ shape = cilinder ]
	"or_r_0" [ shape = cilinder ]
	"or__0" [ shape = cilinder ]
	"or_r_0_1_1_4_3" -> "0_1_1_4_3_3"
	"or_r_0_1_1_4_3" -> "0_1_1_4_3_4"
	"or_l_0_1_1_4_3" -> "0_1_1_4_3_1"
	"or_l_0_1_1_4_3" -> "0_1_1_4_3_2"
	"or__0_1_1_4_3" -> "or_l_0_1_1_4_3"
	"or__0_1_1_4_3" -> "or_r_0_1_1_4_3"
	"and_r_0_1_1_4" -> "0_1_1_4_2"
	"and_r_0_1_1_4" -> "or__0_1_1_4_3"
	"or_r_vote_or_0_1_1_2" -> "0_1_1_2_2"
	"or_r_vote_or_0_1_1_2" -> "0_1_1_2_3_1"
	"and__0_1_1_4" -> "0_1_1_4_1"
	"and__0_1_1_4" -> "and_r_0_1_1_4"
	"or__vote_or_0_1_1_2" -> "0_1_1_2_1"
	"or__vote_or_0_1_1_2" -> "or_r_vote_or_0_1_1_2"
	"vote_5_0_1_1" -> "0_1_1_3"
	"vote_5_0_1_1" -> "and__0_1_1_4"
	"vote_4_0_1_1" -> "or__vote_or_0_1_1_2"
	"vote_4_0_1_1" -> "and__0_1_1_4"
	"vote_2_0_1_1" -> "0_1_1_1"
	"vote_2_0_1_1" -> "and__0_1_1_4"
	"vote_1_0_1_1" -> "0_1_1_1"
	"vote_1_0_1_1" -> "0_1_1_3"
	"or_rr_vote_or_0_1_1" -> "vote_4_0_1_1"
	"or_rr_vote_or_0_1_1" -> "vote_5_0_1_1"
	"vote_3_0_1_1" -> "or__vote_or_0_1_1_2"
	"vote_3_0_1_1" -> "0_1_1_3"
	"or_lr_vote_or_0_1_1" -> "vote_1_0_1_1"
	"or_lr_vote_or_0_1_1" -> "vote_2_0_1_1"
	"vote_0_0_1_1" -> "0_1_1_1"
	"vote_0_0_1_1" -> "or__vote_or_0_1_1_2"
	"or_r_vote_or_0_1_1" -> "vote_3_0_1_1"
	"or_r_vote_or_0_1_1" -> "or_rr_vote_or_0_1_1"
	"or_l_vote_or_0_1_1" -> "vote_0_0_1_1"
	"or_l_vote_or_0_1_1" -> "or_lr_vote_or_0_1_1"
	"or__vote_or_0_1_1" -> "or_l_vote_or_0_1_1"
	"or__vote_or_0_1_1" -> "or_r_vote_or_0_1_1"
	"or_r_0" -> "or__vote_or_0_1_1"
	"or_r_0" -> "or__vote_or_0_1_1"
	"or__0" -> "or__vote_or_0_1_1"
	"or__0" -> "or_r_0"
}