digraph G{ 
	"0_2_1_2_3_3" [ shape = circle ]
	"0_2_1_2_3_2" [ shape = circle ]
	"0_2_1_2_3_1" [ shape = circle ]
	"vote_2_0_2_1_2_3" [ shape = trapezium ]
	"vote_1_0_2_1_2_3" [ shape = trapezium ]
	"0_2_1_2_2_3" [ shape = circle ]
	"0_2_1_2_2_2" [ shape = circle ]
	"or_r_vote_or_0_2_1_2_3" [ shape = cilinder ]
	"vote_0_0_2_1_2_3" [ shape = trapezium ]
	"and_r_0_2_1_2_2" [ shape = trapezium ]
	"0_2_1_2_2_1" [ shape = circle ]
	"0_2_1_1" [ shape = circle ]
	"or__vote_or_0_2_1_2_3" [ shape = cilinder ]
	"and__0_2_1_2_2" [ shape = trapezium ]
	"vote_5_0_2_1_2" [ shape = trapezium ]
	"vote_4_0_2_1_2" [ shape = trapezium ]
	"vote_2_0_2_1_2" [ shape = trapezium ]
	"vote_1_0_2_1_2" [ shape = trapezium ]
	"0_2_2_1_2_4" [ shape = circle ]
	"0_2_2_1_2_3" [ shape = circle ]
	"0_2_2_1_2_2" [ shape = circle ]
	"0_2_2_1_2_1" [ shape = circle ]
	"0_2_1_4_1_3" [ shape = circle ]
	"0_2_1_4_1_2" [ shape = circle ]
	"or_rr_vote_or_0_2_1_2" [ shape = cilinder ]
	"vote_3_0_2_1_2" [ shape = trapezium ]
	"or_lr_vote_or_0_2_1_2" [ shape = cilinder ]
	"vote_0_0_2_1_2" [ shape = trapezium ]
	"and_r_0_2_2_1_2" [ shape = trapezium ]
	"and_l_0_2_2_1_2" [ shape = trapezium ]
	"and_r_0_2_1_4_1" [ shape = trapezium ]
	"0_2_1_4_1_1" [ shape = circle ]
	"or_r_vote_or_0_2_1_2" [ shape = cilinder ]
	"or_l_vote_or_0_2_1_2" [ shape = cilinder ]
	"0_2_2_1_3" [ shape = circle ]
	"and__0_2_2_1_2" [ shape = trapezium ]
	"and__0_2_1_4_1" [ shape = trapezium ]
	"0_2_1_3" [ shape = circle ]
	"or__vote_or_0_2_1_2" [ shape = cilinder ]
	"and_r_0_2_2_1" [ shape = trapezium ]
	"0_1" [ shape = circle ]
	"or_r_0_2_1" [ shape = cilinder ]
	"or_l_0_2_1" [ shape = cilinder ]
	"and__0_2_2_1" [ shape = trapezium ]
	"or__0_2_1" [ shape = cilinder ]
	"0_2" [ shape = cilinder ]
	"0" [ shape = cilinder ]
	"vote_2_0_2_1_2_3" -> "0_2_1_2_3_2"
	"vote_2_0_2_1_2_3" -> "0_2_1_2_3_3"
	"vote_1_0_2_1_2_3" -> "0_2_1_2_3_1"
	"vote_1_0_2_1_2_3" -> "0_2_1_2_3_3"
	"or_r_vote_or_0_2_1_2_3" -> "vote_1_0_2_1_2_3"
	"or_r_vote_or_0_2_1_2_3" -> "vote_2_0_2_1_2_3"
	"vote_0_0_2_1_2_3" -> "0_2_1_2_3_1"
	"vote_0_0_2_1_2_3" -> "0_2_1_2_3_2"
	"and_r_0_2_1_2_2" -> "0_2_1_2_2_2"
	"and_r_0_2_1_2_2" -> "0_2_1_2_2_3"
	"or__vote_or_0_2_1_2_3" -> "vote_0_0_2_1_2_3"
	"or__vote_or_0_2_1_2_3" -> "or_r_vote_or_0_2_1_2_3"
	"and__0_2_1_2_2" -> "0_2_1_2_2_1"
	"and__0_2_1_2_2" -> "and_r_0_2_1_2_2"
	"vote_5_0_2_1_2" -> "or__vote_or_0_2_1_2_3"
	"vote_5_0_2_1_2" -> "0_2_1_1"
	"vote_4_0_2_1_2" -> "and__0_2_1_2_2"
	"vote_4_0_2_1_2" -> "0_2_1_1"
	"vote_2_0_2_1_2" -> "0_2_1_1"
	"vote_2_0_2_1_2" -> "0_2_1_1"
	"vote_1_0_2_1_2" -> "0_2_1_1"
	"vote_1_0_2_1_2" -> "or__vote_or_0_2_1_2_3"
	"or_rr_vote_or_0_2_1_2" -> "vote_4_0_2_1_2"
	"or_rr_vote_or_0_2_1_2" -> "vote_5_0_2_1_2"
	"vote_3_0_2_1_2" -> "and__0_2_1_2_2"
	"vote_3_0_2_1_2" -> "or__vote_or_0_2_1_2_3"
	"or_lr_vote_or_0_2_1_2" -> "vote_1_0_2_1_2"
	"or_lr_vote_or_0_2_1_2" -> "vote_2_0_2_1_2"
	"vote_0_0_2_1_2" -> "0_2_1_1"
	"vote_0_0_2_1_2" -> "and__0_2_1_2_2"
	"and_r_0_2_2_1_2" -> "0_2_2_1_2_3"
	"and_r_0_2_2_1_2" -> "0_2_2_1_2_4"
	"and_l_0_2_2_1_2" -> "0_2_2_1_2_1"
	"and_l_0_2_2_1_2" -> "0_2_2_1_2_2"
	"and_r_0_2_1_4_1" -> "0_2_1_4_1_2"
	"and_r_0_2_1_4_1" -> "0_2_1_4_1_3"
	"or_r_vote_or_0_2_1_2" -> "vote_3_0_2_1_2"
	"or_r_vote_or_0_2_1_2" -> "or_rr_vote_or_0_2_1_2"
	"or_l_vote_or_0_2_1_2" -> "vote_0_0_2_1_2"
	"or_l_vote_or_0_2_1_2" -> "or_lr_vote_or_0_2_1_2"
	"and__0_2_2_1_2" -> "and_l_0_2_2_1_2"
	"and__0_2_2_1_2" -> "and_r_0_2_2_1_2"
	"and__0_2_1_4_1" -> "0_2_1_4_1_1"
	"and__0_2_1_4_1" -> "and_r_0_2_1_4_1"
	"or__vote_or_0_2_1_2" -> "or_l_vote_or_0_2_1_2"
	"or__vote_or_0_2_1_2" -> "or_r_vote_or_0_2_1_2"
	"and_r_0_2_2_1" -> "and__0_2_2_1_2"
	"and_r_0_2_2_1" -> "0_2_2_1_3"
	"or_r_0_2_1" -> "0_2_1_3"
	"or_r_0_2_1" -> "and__0_2_1_4_1"
	"or_l_0_2_1" -> "0_2_1_1"
	"or_l_0_2_1" -> "or__vote_or_0_2_1_2"
	"and__0_2_2_1" -> "0_1"
	"and__0_2_2_1" -> "and_r_0_2_2_1"
	"or__0_2_1" -> "or_l_0_2_1"
	"or__0_2_1" -> "or_r_0_2_1"
	"0_2" -> "or__0_2_1"
	"0_2" -> "and__0_2_2_1"
	"0" -> "0_1"
	"0" -> "0_2"
}