digraph G{ 
	"0_7_4_9" [ shape = circle ]
	"0_7_4_8" [ shape = circle ]
	"0_1_4_6" [ shape = circle ]
	"0_1_4_5" [ shape = circle ]
	"0_1_4_4" [ shape = circle ]
	"0_1_4_3" [ shape = circle ]
	"0_1_4_2" [ shape = circle ]
	"0_1_4_1" [ shape = circle ]
	"0_7_7_8" [ shape = circle ]
	"0_7_7_7" [ shape = circle ]
	"0_7_7_6" [ shape = circle ]
	"0_7_7_5" [ shape = circle ]
	"0_7_7_4" [ shape = circle ]
	"0_7_7_3" [ shape = circle ]
	"0_7_7_2" [ shape = circle ]
	"0_7_7_1" [ shape = circle ]
	"0_7_6_8" [ shape = circle ]
	"0_7_6_7" [ shape = circle ]
	"0_7_6_6" [ shape = circle ]
	"0_7_6_5" [ shape = circle ]
	"0_7_6_4" [ shape = circle ]
	"0_7_6_3" [ shape = circle ]
	"0_7_6_2" [ shape = circle ]
	"0_7_6_1" [ shape = circle ]
	"and_rrr_0_7_4" [ shape = trapezium ]
	"0_7_4_7" [ shape = circle ]
	"0_7_4_6" [ shape = circle ]
	"0_7_4_5" [ shape = circle ]
	"0_7_4_4" [ shape = circle ]
	"0_7_4_3" [ shape = circle ]
	"0_7_4_2" [ shape = circle ]
	"0_7_4_1" [ shape = circle ]
	"0_6_4_5" [ shape = circle ]
	"0_6_4_4" [ shape = circle ]
	"0_6_2_6" [ shape = circle ]
	"0_6_2_5" [ shape = circle ]
	"0_6_2_3" [ shape = circle ]
	"0_6_2_2" [ shape = circle ]
	"vote_14_0_1_4" [ shape = trapezium ]
	"vote_13_0_1_4" [ shape = trapezium ]
	"vote_12_0_1_4" [ shape = trapezium ]
	"vote_11_0_1_4" [ shape = trapezium ]
	"vote_10_0_1_4" [ shape = trapezium ]
	"vote_9_0_1_4" [ shape = trapezium ]
	"vote_8_0_1_4" [ shape = trapezium ]
	"vote_7_0_1_4" [ shape = trapezium ]
	"vote_6_0_1_4" [ shape = trapezium ]
	"vote_5_0_1_4" [ shape = trapezium ]
	"vote_4_0_1_4" [ shape = trapezium ]
	"vote_3_0_1_4" [ shape = trapezium ]
	"vote_2_0_1_4" [ shape = trapezium ]
	"vote_1_0_1_4" [ shape = trapezium ]
	"or_rr_vote_or_0_7_7" [ shape = cilinder ]
	"or_rl_vote_or_0_7_7" [ shape = cilinder ]
	"or_lr_vote_or_0_7_7" [ shape = cilinder ]
	"or_ll_vote_or_0_7_7" [ shape = cilinder ]
	"and_rr_0_7_6" [ shape = trapezium ]
	"and_rl_0_7_6" [ shape = trapezium ]
	"and_lr_0_7_6" [ shape = trapezium ]
	"and_ll_0_7_6" [ shape = trapezium ]
	"and_rr_0_7_4" [ shape = trapezium ]
	"and_rl_0_7_4" [ shape = trapezium ]
	"and_lr_0_7_4" [ shape = trapezium ]
	"and_ll_0_7_4" [ shape = trapezium ]
	"or_rr_vote_or_0_6_4" [ shape = cilinder ]
	"0_6_4_3" [ shape = circle ]
	"0_6_4_2" [ shape = circle ]
	"0_6_4_1" [ shape = circle ]
	"and_rr_0_6_2" [ shape = trapezium ]
	"0_6_2_4" [ shape = circle ]
	"and_lr_0_6_2" [ shape = trapezium ]
	"0_6_2_1" [ shape = circle ]
	"0_3_1_8" [ shape = circle ]
	"0_3_1_7" [ shape = circle ]
	"0_3_1_6" [ shape = circle ]
	"0_3_1_5" [ shape = circle ]
	"0_3_1_4" [ shape = circle ]
	"0_3_1_3" [ shape = circle ]
	"0_3_1_2" [ shape = circle ]
	"0_3_1_1" [ shape = circle ]
	"0_1_5_7" [ shape = circle ]
	"0_1_5_6" [ shape = circle ]
	"0_1_5_5" [ shape = circle ]
	"0_1_5_4" [ shape = circle ]
	"0_1_5_3" [ shape = circle ]
	"0_1_5_2" [ shape = circle ]
	"or_rrr_vote_or_0_1_4" [ shape = cilinder ]
	"or_rrl_vote_or_0_1_4" [ shape = cilinder ]
	"or_rlr_vote_or_0_1_4" [ shape = cilinder ]
	"or_rll_vote_or_0_1_4" [ shape = cilinder ]
	"or_lrr_vote_or_0_1_4" [ shape = cilinder ]
	"or_lrl_vote_or_0_1_4" [ shape = cilinder ]
	"or_llr_vote_or_0_1_4" [ shape = cilinder ]
	"vote_0_0_1_4" [ shape = trapezium ]
	"or_r_vote_or_0_7_7" [ shape = cilinder ]
	"or_l_vote_or_0_7_7" [ shape = cilinder ]
	"and_r_0_7_6" [ shape = trapezium ]
	"and_l_0_7_6" [ shape = trapezium ]
	"and_r_0_7_4" [ shape = trapezium ]
	"and_l_0_7_4" [ shape = trapezium ]
	"or_r_vote_or_0_6_4" [ shape = cilinder ]
	"or_l_vote_or_0_6_4" [ shape = cilinder ]
	"and_r_0_6_2" [ shape = trapezium ]
	"and_l_0_6_2" [ shape = trapezium ]
	"and_rr_0_3_1" [ shape = trapezium ]
	"and_rl_0_3_1" [ shape = trapezium ]
	"and_lr_0_3_1" [ shape = trapezium ]
	"and_ll_0_3_1" [ shape = trapezium ]
	"0_5_1_8" [ shape = circle ]
	"0_5_1_7" [ shape = circle ]
	"0_5_1_6" [ shape = circle ]
	"0_5_1_5" [ shape = circle ]
	"0_5_1_4" [ shape = circle ]
	"0_5_1_3" [ shape = circle ]
	"0_5_1_2" [ shape = circle ]
	"0_5_1_1" [ shape = circle ]
	"0_1_6_3" [ shape = circle ]
	"0_1_6_2" [ shape = circle ]
	"and_rr_0_1_5" [ shape = trapezium ]
	"and_rl_0_1_5" [ shape = trapezium ]
	"and_lr_0_1_5" [ shape = trapezium ]
	"0_1_5_1" [ shape = circle ]
	"or_rr_vote_or_0_1_4" [ shape = cilinder ]
	"or_rl_vote_or_0_1_4" [ shape = cilinder ]
	"or_lr_vote_or_0_1_4" [ shape = cilinder ]
	"or_ll_vote_or_0_1_4" [ shape = cilinder ]
	"or__vote_or_0_7_7" [ shape = cilinder ]
	"and__0_7_6" [ shape = trapezium ]
	"0_7_5" [ shape = circle ]
	"and__0_7_4" [ shape = trapezium ]
	"0_7_3" [ shape = circle ]
	"0_7_2" [ shape = circle ]
	"0_7_1_2" [ shape = circle ]
	"0_7_1_1" [ shape = circle ]
	"0_6_7" [ shape = circle ]
	"0_6_6" [ shape = circle ]
	"0_6_5_1" [ shape = circle ]
	"or__vote_or_0_6_4" [ shape = cilinder ]
	"0_6_3" [ shape = circle ]
	"and__0_6_2" [ shape = trapezium ]
	"0_6_1_2" [ shape = circle ]
	"0_6_1_1" [ shape = circle ]
	"0_3_9" [ shape = circle ]
	"0_3_8" [ shape = circle ]
	"and_r_0_3_1" [ shape = trapezium ]
	"and_l_0_3_1" [ shape = trapezium ]
	"0_2_2_5" [ shape = circle ]
	"0_2_2_4" [ shape = circle ]
	"and_rr_0_5_1" [ shape = trapezium ]
	"and_rl_0_5_1" [ shape = trapezium ]
	"and_lr_0_5_1" [ shape = trapezium ]
	"and_ll_0_5_1" [ shape = trapezium ]
	"or_r_vote_or_0_1_6" [ shape = cilinder ]
	"0_1_6_1" [ shape = circle ]
	"and_r_0_1_5" [ shape = trapezium ]
	"and_l_0_1_5" [ shape = trapezium ]
	"or_r_vote_or_0_1_4" [ shape = cilinder ]
	"or_l_vote_or_0_1_4" [ shape = cilinder ]
	"0_1_3_2" [ shape = circle ]
	"0_1_3_1" [ shape = circle ]
	"or_rr_0_7" [ shape = cilinder ]
	"or_rl_0_7" [ shape = cilinder ]
	"or_lr_0_7" [ shape = cilinder ]
	"0_7_1" [ shape = trapezium ]
	"or_rr_0_6" [ shape = cilinder ]
	"or_rl_0_6" [ shape = cilinder ]
	"or_lr_0_6" [ shape = cilinder ]
	"0_6_1" [ shape = cilinder ]
	"or_rrr_0_3" [ shape = cilinder ]
	"0_3_7" [ shape = circle ]
	"0_3_6" [ shape = circle ]
	"0_3_5" [ shape = circle ]
	"0_3_4_1" [ shape = circle ]
	"0_3_3" [ shape = circle ]
	"0_3_2" [ shape = circle ]
	"and__0_3_1" [ shape = trapezium ]
	"or_rr_0_2_2" [ shape = cilinder ]
	"0_2_2_3" [ shape = circle ]
	"0_2_2_2" [ shape = circle ]
	"0_2_2_1" [ shape = circle ]
	"0_5_2_2" [ shape = circle ]
	"0_5_2_1" [ shape = circle ]
	"and_r_0_5_1" [ shape = trapezium ]
	"and_l_0_5_1" [ shape = trapezium ]
	"0_1_7" [ shape = circle ]
	"or__vote_or_0_1_6" [ shape = cilinder ]
	"and__0_1_5" [ shape = trapezium ]
	"or__vote_or_0_1_4" [ shape = cilinder ]
	"0_1_3" [ shape = trapezium ]
	"0_1_2" [ shape = circle ]
	"or_r_0_7" [ shape = cilinder ]
	"or_l_0_7" [ shape = cilinder ]
	"or_r_0_6" [ shape = cilinder ]
	"or_l_0_6" [ shape = cilinder ]
	"or_rr_0_3" [ shape = cilinder ]
	"or_rl_0_3" [ shape = cilinder ]
	"or_lr_0_3" [ shape = cilinder ]
	"or_ll_0_3" [ shape = cilinder ]
	"or_r_0_2_2" [ shape = cilinder ]
	"or_l_0_2_2" [ shape = cilinder ]
	"0_5_2" [ shape = trapezium ]
	"and__0_5_1" [ shape = trapezium ]
	"or_rr_0_1" [ shape = cilinder ]
	"or_rl_0_1" [ shape = cilinder ]
	"or_lr_0_1" [ shape = cilinder ]
	"0_1_1" [ shape = circle ]
	"or__0_7" [ shape = cilinder ]
	"or__0_6" [ shape = cilinder ]
	"or_r_0_3" [ shape = cilinder ]
	"or_l_0_3" [ shape = cilinder ]
	"or__0_2_2" [ shape = cilinder ]
	"0_2_1" [ shape = circle ]
	"0_5" [ shape = cilinder ]
	"or_r_0_1" [ shape = cilinder ]
	"or_l_0_1" [ shape = cilinder ]
	"and_rr_vote_20_0" [ shape = trapezium ]
	"0_4" [ shape = circle ]
	"or__0_3" [ shape = cilinder ]
	"and_rr_vote_19_0" [ shape = trapezium ]
	"vote_or_0_2" [ shape = cilinder ]
	"and_rr_vote_17_0" [ shape = trapezium ]
	"and_rr_vote_16_0" [ shape = trapezium ]
	"and_rr_vote_14_0" [ shape = trapezium ]
	"or__0_1" [ shape = cilinder ]
	"and_rr_vote_13_0" [ shape = trapezium ]
	"and_rr_vote_9_0" [ shape = trapezium ]
	"and_rr_vote_8_0" [ shape = trapezium ]
	"and_rr_vote_4_0" [ shape = trapezium ]
	"and_rr_vote_3_0" [ shape = trapezium ]
	"and_r_vote_20_0" [ shape = trapezium ]
	"and_l_vote_20_0" [ shape = trapezium ]
	"and_r_vote_19_0" [ shape = trapezium ]
	"and_l_vote_19_0" [ shape = trapezium ]
	"and_rr_vote_18_0" [ shape = trapezium ]
	"and_r_vote_17_0" [ shape = trapezium ]
	"and_l_vote_17_0" [ shape = trapezium ]
	"and_r_vote_16_0" [ shape = trapezium ]
	"and_l_vote_16_0" [ shape = trapezium ]
	"and_rr_vote_15_0" [ shape = trapezium ]
	"and_r_vote_14_0" [ shape = trapezium ]
	"and_l_vote_14_0" [ shape = trapezium ]
	"and_r_vote_13_0" [ shape = trapezium ]
	"and_l_vote_13_0" [ shape = trapezium ]
	"and_rr_vote_12_0" [ shape = trapezium ]
	"and_rr_vote_11_0" [ shape = trapezium ]
	"and_rr_vote_10_0" [ shape = trapezium ]
	"and_r_vote_9_0" [ shape = trapezium ]
	"and_l_vote_9_0" [ shape = trapezium ]
	"and_r_vote_8_0" [ shape = trapezium ]
	"and_l_vote_8_0" [ shape = trapezium ]
	"and_rr_vote_7_0" [ shape = trapezium ]
	"and_rr_vote_6_0" [ shape = trapezium ]
	"and_rr_vote_5_0" [ shape = trapezium ]
	"and_r_vote_4_0" [ shape = trapezium ]
	"and_l_vote_4_0" [ shape = trapezium ]
	"and_r_vote_3_0" [ shape = trapezium ]
	"and_l_vote_3_0" [ shape = trapezium ]
	"and_rr_vote_2_0" [ shape = trapezium ]
	"and_rr_vote_1_0" [ shape = trapezium ]
	"and_rr_vote_0_0" [ shape = trapezium ]
	"and__vote_20_0" [ shape = trapezium ]
	"and__vote_19_0" [ shape = trapezium ]
	"and_r_vote_18_0" [ shape = trapezium ]
	"and_l_vote_18_0" [ shape = trapezium ]
	"and__vote_17_0" [ shape = trapezium ]
	"and__vote_16_0" [ shape = trapezium ]
	"and_r_vote_15_0" [ shape = trapezium ]
	"and_l_vote_15_0" [ shape = trapezium ]
	"and__vote_14_0" [ shape = trapezium ]
	"and__vote_13_0" [ shape = trapezium ]
	"and_r_vote_12_0" [ shape = trapezium ]
	"and_l_vote_12_0" [ shape = trapezium ]
	"and_r_vote_11_0" [ shape = trapezium ]
	"and_l_vote_11_0" [ shape = trapezium ]
	"and_r_vote_10_0" [ shape = trapezium ]
	"and_l_vote_10_0" [ shape = trapezium ]
	"and__vote_9_0" [ shape = trapezium ]
	"and__vote_8_0" [ shape = trapezium ]
	"and_r_vote_7_0" [ shape = trapezium ]
	"and_l_vote_7_0" [ shape = trapezium ]
	"and_r_vote_6_0" [ shape = trapezium ]
	"and_l_vote_6_0" [ shape = trapezium ]
	"and_r_vote_5_0" [ shape = trapezium ]
	"and_l_vote_5_0" [ shape = trapezium ]
	"and__vote_4_0" [ shape = trapezium ]
	"and__vote_3_0" [ shape = trapezium ]
	"and_r_vote_2_0" [ shape = trapezium ]
	"and_l_vote_2_0" [ shape = trapezium ]
	"and_r_vote_1_0" [ shape = trapezium ]
	"and_l_vote_1_0" [ shape = trapezium ]
	"and_r_vote_0_0" [ shape = trapezium ]
	"and_l_vote_0_0" [ shape = trapezium ]
	"or_rrrr_vote_or_0" [ shape = cilinder ]
	"and__vote_18_0" [ shape = trapezium ]
	"or_rrlr_vote_or_0" [ shape = cilinder ]
	"and__vote_15_0" [ shape = trapezium ]
	"or_rlrr_vote_or_0" [ shape = cilinder ]
	"and__vote_12_0" [ shape = trapezium ]
	"and__vote_11_0" [ shape = trapezium ]
	"and__vote_10_0" [ shape = trapezium ]
	"or_lrrr_vote_or_0" [ shape = cilinder ]
	"and__vote_7_0" [ shape = trapezium ]
	"and__vote_6_0" [ shape = trapezium ]
	"and__vote_5_0" [ shape = trapezium ]
	"or_llrr_vote_or_0" [ shape = cilinder ]
	"and__vote_2_0" [ shape = trapezium ]
	"and__vote_1_0" [ shape = trapezium ]
	"and__vote_0_0" [ shape = trapezium ]
	"or_rrr_vote_or_0" [ shape = cilinder ]
	"or_rrl_vote_or_0" [ shape = cilinder ]
	"or_rlr_vote_or_0" [ shape = cilinder ]
	"or_rll_vote_or_0" [ shape = cilinder ]
	"or_lrr_vote_or_0" [ shape = cilinder ]
	"or_lrl_vote_or_0" [ shape = cilinder ]
	"or_llr_vote_or_0" [ shape = cilinder ]
	"or_lll_vote_or_0" [ shape = cilinder ]
	"or_rr_vote_or_0" [ shape = cilinder ]
	"or_rl_vote_or_0" [ shape = cilinder ]
	"or_lr_vote_or_0" [ shape = cilinder ]
	"or_ll_vote_or_0" [ shape = cilinder ]
	"or_r_vote_or_0" [ shape = cilinder ]
	"or_l_vote_or_0" [ shape = cilinder ]
	"or__vote_or_0" [ shape = cilinder ]
	"and_rrr_0_7_4" -> "0_7_4_8"
	"and_rrr_0_7_4" -> "0_7_4_9"
	"vote_14_0_1_4" -> "0_1_4_5"
	"vote_14_0_1_4" -> "0_1_4_6"
	"vote_13_0_1_4" -> "0_1_4_4"
	"vote_13_0_1_4" -> "0_1_4_6"
	"vote_12_0_1_4" -> "0_1_4_4"
	"vote_12_0_1_4" -> "0_1_4_5"
	"vote_11_0_1_4" -> "0_1_4_3"
	"vote_11_0_1_4" -> "0_1_4_6"
	"vote_10_0_1_4" -> "0_1_4_3"
	"vote_10_0_1_4" -> "0_1_4_5"
	"vote_9_0_1_4" -> "0_1_4_3"
	"vote_9_0_1_4" -> "0_1_4_4"
	"vote_8_0_1_4" -> "0_1_4_2"
	"vote_8_0_1_4" -> "0_1_4_6"
	"vote_7_0_1_4" -> "0_1_4_2"
	"vote_7_0_1_4" -> "0_1_4_5"
	"vote_6_0_1_4" -> "0_1_4_2"
	"vote_6_0_1_4" -> "0_1_4_4"
	"vote_5_0_1_4" -> "0_1_4_2"
	"vote_5_0_1_4" -> "0_1_4_3"
	"vote_4_0_1_4" -> "0_1_4_1"
	"vote_4_0_1_4" -> "0_1_4_6"
	"vote_3_0_1_4" -> "0_1_4_1"
	"vote_3_0_1_4" -> "0_1_4_5"
	"vote_2_0_1_4" -> "0_1_4_1"
	"vote_2_0_1_4" -> "0_1_4_4"
	"vote_1_0_1_4" -> "0_1_4_1"
	"vote_1_0_1_4" -> "0_1_4_3"
	"or_rr_vote_or_0_7_7" -> "0_7_7_7"
	"or_rr_vote_or_0_7_7" -> "0_7_7_8"
	"or_rl_vote_or_0_7_7" -> "0_7_7_5"
	"or_rl_vote_or_0_7_7" -> "0_7_7_6"
	"or_lr_vote_or_0_7_7" -> "0_7_7_3"
	"or_lr_vote_or_0_7_7" -> "0_7_7_4"
	"or_ll_vote_or_0_7_7" -> "0_7_7_1"
	"or_ll_vote_or_0_7_7" -> "0_7_7_2"
	"and_rr_0_7_6" -> "0_7_6_7"
	"and_rr_0_7_6" -> "0_7_6_8"
	"and_rl_0_7_6" -> "0_7_6_5"
	"and_rl_0_7_6" -> "0_7_6_6"
	"and_lr_0_7_6" -> "0_7_6_3"
	"and_lr_0_7_6" -> "0_7_6_4"
	"and_ll_0_7_6" -> "0_7_6_1"
	"and_ll_0_7_6" -> "0_7_6_2"
	"and_rr_0_7_4" -> "0_7_4_7"
	"and_rr_0_7_4" -> "and_rrr_0_7_4"
	"and_rl_0_7_4" -> "0_7_4_5"
	"and_rl_0_7_4" -> "0_7_4_6"
	"and_lr_0_7_4" -> "0_7_4_3"
	"and_lr_0_7_4" -> "0_7_4_4"
	"and_ll_0_7_4" -> "0_7_4_1"
	"and_ll_0_7_4" -> "0_7_4_2"
	"or_rr_vote_or_0_6_4" -> "0_6_4_4"
	"or_rr_vote_or_0_6_4" -> "0_6_4_5"
	"and_rr_0_6_2" -> "0_6_2_5"
	"and_rr_0_6_2" -> "0_6_2_6"
	"and_lr_0_6_2" -> "0_6_2_2"
	"and_lr_0_6_2" -> "0_6_2_3"
	"or_rrr_vote_or_0_1_4" -> "vote_13_0_1_4"
	"or_rrr_vote_or_0_1_4" -> "vote_14_0_1_4"
	"or_rrl_vote_or_0_1_4" -> "vote_11_0_1_4"
	"or_rrl_vote_or_0_1_4" -> "vote_12_0_1_4"
	"or_rlr_vote_or_0_1_4" -> "vote_9_0_1_4"
	"or_rlr_vote_or_0_1_4" -> "vote_10_0_1_4"
	"or_rll_vote_or_0_1_4" -> "vote_7_0_1_4"
	"or_rll_vote_or_0_1_4" -> "vote_8_0_1_4"
	"or_lrr_vote_or_0_1_4" -> "vote_5_0_1_4"
	"or_lrr_vote_or_0_1_4" -> "vote_6_0_1_4"
	"or_lrl_vote_or_0_1_4" -> "vote_3_0_1_4"
	"or_lrl_vote_or_0_1_4" -> "vote_4_0_1_4"
	"or_llr_vote_or_0_1_4" -> "vote_1_0_1_4"
	"or_llr_vote_or_0_1_4" -> "vote_2_0_1_4"
	"vote_0_0_1_4" -> "0_1_4_1"
	"vote_0_0_1_4" -> "0_1_4_2"
	"or_r_vote_or_0_7_7" -> "or_rl_vote_or_0_7_7"
	"or_r_vote_or_0_7_7" -> "or_rr_vote_or_0_7_7"
	"or_l_vote_or_0_7_7" -> "or_ll_vote_or_0_7_7"
	"or_l_vote_or_0_7_7" -> "or_lr_vote_or_0_7_7"
	"and_r_0_7_6" -> "and_rl_0_7_6"
	"and_r_0_7_6" -> "and_rr_0_7_6"
	"and_l_0_7_6" -> "and_ll_0_7_6"
	"and_l_0_7_6" -> "and_lr_0_7_6"
	"and_r_0_7_4" -> "and_rl_0_7_4"
	"and_r_0_7_4" -> "and_rr_0_7_4"
	"and_l_0_7_4" -> "and_ll_0_7_4"
	"and_l_0_7_4" -> "and_lr_0_7_4"
	"or_r_vote_or_0_6_4" -> "0_6_4_3"
	"or_r_vote_or_0_6_4" -> "or_rr_vote_or_0_6_4"
	"or_l_vote_or_0_6_4" -> "0_6_4_1"
	"or_l_vote_or_0_6_4" -> "0_6_4_2"
	"and_r_0_6_2" -> "0_6_2_4"
	"and_r_0_6_2" -> "and_rr_0_6_2"
	"and_l_0_6_2" -> "0_6_2_1"
	"and_l_0_6_2" -> "and_lr_0_6_2"
	"and_rr_0_3_1" -> "0_3_1_7"
	"and_rr_0_3_1" -> "0_3_1_8"
	"and_rl_0_3_1" -> "0_3_1_5"
	"and_rl_0_3_1" -> "0_3_1_6"
	"and_lr_0_3_1" -> "0_3_1_3"
	"and_lr_0_3_1" -> "0_3_1_4"
	"and_ll_0_3_1" -> "0_3_1_1"
	"and_ll_0_3_1" -> "0_3_1_2"
	"and_rr_0_1_5" -> "0_1_5_6"
	"and_rr_0_1_5" -> "0_1_5_7"
	"and_rl_0_1_5" -> "0_1_5_4"
	"and_rl_0_1_5" -> "0_1_5_5"
	"and_lr_0_1_5" -> "0_1_5_2"
	"and_lr_0_1_5" -> "0_1_5_3"
	"or_rr_vote_or_0_1_4" -> "or_rrl_vote_or_0_1_4"
	"or_rr_vote_or_0_1_4" -> "or_rrr_vote_or_0_1_4"
	"or_rl_vote_or_0_1_4" -> "or_rll_vote_or_0_1_4"
	"or_rl_vote_or_0_1_4" -> "or_rlr_vote_or_0_1_4"
	"or_lr_vote_or_0_1_4" -> "or_lrl_vote_or_0_1_4"
	"or_lr_vote_or_0_1_4" -> "or_lrr_vote_or_0_1_4"
	"or_ll_vote_or_0_1_4" -> "vote_0_0_1_4"
	"or_ll_vote_or_0_1_4" -> "or_llr_vote_or_0_1_4"
	"or__vote_or_0_7_7" -> "or_l_vote_or_0_7_7"
	"or__vote_or_0_7_7" -> "or_r_vote_or_0_7_7"
	"and__0_7_6" -> "and_l_0_7_6"
	"and__0_7_6" -> "and_r_0_7_6"
	"and__0_7_4" -> "and_l_0_7_4"
	"and__0_7_4" -> "and_r_0_7_4"
	"or__vote_or_0_6_4" -> "or_l_vote_or_0_6_4"
	"or__vote_or_0_6_4" -> "or_r_vote_or_0_6_4"
	"and__0_6_2" -> "and_l_0_6_2"
	"and__0_6_2" -> "and_r_0_6_2"
	"and_r_0_3_1" -> "and_rl_0_3_1"
	"and_r_0_3_1" -> "and_rr_0_3_1"
	"and_l_0_3_1" -> "and_ll_0_3_1"
	"and_l_0_3_1" -> "and_lr_0_3_1"
	"and_rr_0_5_1" -> "0_5_1_7"
	"and_rr_0_5_1" -> "0_5_1_8"
	"and_rl_0_5_1" -> "0_5_1_5"
	"and_rl_0_5_1" -> "0_5_1_6"
	"and_lr_0_5_1" -> "0_5_1_3"
	"and_lr_0_5_1" -> "0_5_1_4"
	"and_ll_0_5_1" -> "0_5_1_1"
	"and_ll_0_5_1" -> "0_5_1_2"
	"or_r_vote_or_0_1_6" -> "0_1_6_2"
	"or_r_vote_or_0_1_6" -> "0_1_6_3"
	"and_r_0_1_5" -> "and_rl_0_1_5"
	"and_r_0_1_5" -> "and_rr_0_1_5"
	"and_l_0_1_5" -> "0_1_5_1"
	"and_l_0_1_5" -> "and_lr_0_1_5"
	"or_r_vote_or_0_1_4" -> "or_rl_vote_or_0_1_4"
	"or_r_vote_or_0_1_4" -> "or_rr_vote_or_0_1_4"
	"or_l_vote_or_0_1_4" -> "or_ll_vote_or_0_1_4"
	"or_l_vote_or_0_1_4" -> "or_lr_vote_or_0_1_4"
	"or_rr_0_7" -> "and__0_7_6"
	"or_rr_0_7" -> "or__vote_or_0_7_7"
	"or_rl_0_7" -> "and__0_7_4"
	"or_rl_0_7" -> "0_7_5"
	"or_lr_0_7" -> "0_7_2"
	"or_lr_0_7" -> "0_7_3"
	"0_7_1" -> "0_7_1_1"
	"0_7_1" -> "0_7_1_2"
	"or_rr_0_6" -> "0_6_6"
	"or_rr_0_6" -> "0_6_7"
	"or_rl_0_6" -> "or__vote_or_0_6_4"
	"or_rl_0_6" -> "0_6_5_1"
	"or_lr_0_6" -> "and__0_6_2"
	"or_lr_0_6" -> "0_6_3"
	"0_6_1" -> "0_6_1_1"
	"0_6_1" -> "0_6_1_2"
	"or_rrr_0_3" -> "0_3_8"
	"or_rrr_0_3" -> "0_3_9"
	"and__0_3_1" -> "and_l_0_3_1"
	"and__0_3_1" -> "and_r_0_3_1"
	"or_rr_0_2_2" -> "0_2_2_4"
	"or_rr_0_2_2" -> "0_2_2_5"
	"and_r_0_5_1" -> "and_rl_0_5_1"
	"and_r_0_5_1" -> "and_rr_0_5_1"
	"and_l_0_5_1" -> "and_ll_0_5_1"
	"and_l_0_5_1" -> "and_lr_0_5_1"
	"or__vote_or_0_1_6" -> "0_1_6_1"
	"or__vote_or_0_1_6" -> "or_r_vote_or_0_1_6"
	"and__0_1_5" -> "and_l_0_1_5"
	"and__0_1_5" -> "and_r_0_1_5"
	"or__vote_or_0_1_4" -> "or_l_vote_or_0_1_4"
	"or__vote_or_0_1_4" -> "or_r_vote_or_0_1_4"
	"0_1_3" -> "0_1_3_1"
	"0_1_3" -> "0_1_3_2"
	"or_r_0_7" -> "or_rl_0_7"
	"or_r_0_7" -> "or_rr_0_7"
	"or_l_0_7" -> "0_7_1"
	"or_l_0_7" -> "or_lr_0_7"
	"or_r_0_6" -> "or_rl_0_6"
	"or_r_0_6" -> "or_rr_0_6"
	"or_l_0_6" -> "0_6_1"
	"or_l_0_6" -> "or_lr_0_6"
	"or_rr_0_3" -> "0_3_7"
	"or_rr_0_3" -> "or_rrr_0_3"
	"or_rl_0_3" -> "0_3_5"
	"or_rl_0_3" -> "0_3_6"
	"or_lr_0_3" -> "0_3_3"
	"or_lr_0_3" -> "0_3_4_1"
	"or_ll_0_3" -> "and__0_3_1"
	"or_ll_0_3" -> "0_3_2"
	"or_r_0_2_2" -> "0_2_2_3"
	"or_r_0_2_2" -> "or_rr_0_2_2"
	"or_l_0_2_2" -> "0_2_2_1"
	"or_l_0_2_2" -> "0_2_2_2"
	"0_5_2" -> "0_5_2_1"
	"0_5_2" -> "0_5_2_2"
	"and__0_5_1" -> "and_l_0_5_1"
	"and__0_5_1" -> "and_r_0_5_1"
	"or_rr_0_1" -> "or__vote_or_0_1_6"
	"or_rr_0_1" -> "0_1_7"
	"or_rl_0_1" -> "or__vote_or_0_1_4"
	"or_rl_0_1" -> "and__0_1_5"
	"or_lr_0_1" -> "0_1_2"
	"or_lr_0_1" -> "0_1_3"
	"or__0_7" -> "or_l_0_7"
	"or__0_7" -> "or_r_0_7"
	"or__0_6" -> "or_l_0_6"
	"or__0_6" -> "or_r_0_6"
	"or_r_0_3" -> "or_rl_0_3"
	"or_r_0_3" -> "or_rr_0_3"
	"or_l_0_3" -> "or_ll_0_3"
	"or_l_0_3" -> "or_lr_0_3"
	"or__0_2_2" -> "or_l_0_2_2"
	"or__0_2_2" -> "or_r_0_2_2"
	"0_5" -> "and__0_5_1"
	"0_5" -> "0_5_2"
	"or_r_0_1" -> "or_rl_0_1"
	"or_r_0_1" -> "or_rr_0_1"
	"or_l_0_1" -> "0_1_1"
	"or_l_0_1" -> "or_lr_0_1"
	"and_rr_vote_20_0" -> "or__0_6"
	"and_rr_vote_20_0" -> "or__0_7"
	"or__0_3" -> "or_l_0_3"
	"or__0_3" -> "or_r_0_3"
	"and_rr_vote_19_0" -> "or__0_6"
	"and_rr_vote_19_0" -> "or__0_7"
	"vote_or_0_2" -> "0_2_1"
	"vote_or_0_2" -> "or__0_2_2"
	"and_rr_vote_17_0" -> "or__0_6"
	"and_rr_vote_17_0" -> "or__0_7"
	"and_rr_vote_16_0" -> "0_5"
	"and_rr_vote_16_0" -> "or__0_7"
	"and_rr_vote_14_0" -> "or__0_6"
	"and_rr_vote_14_0" -> "or__0_7"
	"or__0_1" -> "or_l_0_1"
	"or__0_1" -> "or_r_0_1"
	"and_rr_vote_13_0" -> "or__0_6"
	"and_rr_vote_13_0" -> "or__0_7"
	"and_rr_vote_9_0" -> "or__0_6"
	"and_rr_vote_9_0" -> "or__0_7"
	"and_rr_vote_8_0" -> "or__0_6"
	"and_rr_vote_8_0" -> "or__0_7"
	"and_rr_vote_4_0" -> "0_5"
	"and_rr_vote_4_0" -> "or__0_7"
	"and_rr_vote_3_0" -> "0_5"
	"and_rr_vote_3_0" -> "or__0_6"
	"and_r_vote_20_0" -> "0_5"
	"and_r_vote_20_0" -> "and_rr_vote_20_0"
	"and_l_vote_20_0" -> "or__0_3"
	"and_l_vote_20_0" -> "0_4"
	"and_r_vote_19_0" -> "0_5"
	"and_r_vote_19_0" -> "and_rr_vote_19_0"
	"and_l_vote_19_0" -> "vote_or_0_2"
	"and_l_vote_19_0" -> "0_4"
	"and_rr_vote_18_0" -> "or__0_6"
	"and_rr_vote_18_0" -> "or__0_7"
	"and_r_vote_17_0" -> "0_4"
	"and_r_vote_17_0" -> "and_rr_vote_17_0"
	"and_l_vote_17_0" -> "vote_or_0_2"
	"and_l_vote_17_0" -> "or__0_3"
	"and_r_vote_16_0" -> "0_4"
	"and_r_vote_16_0" -> "and_rr_vote_16_0"
	"and_l_vote_16_0" -> "vote_or_0_2"
	"and_l_vote_16_0" -> "or__0_3"
	"and_rr_vote_15_0" -> "0_5"
	"and_rr_vote_15_0" -> "or__0_6"
	"and_r_vote_14_0" -> "0_5"
	"and_r_vote_14_0" -> "and_rr_vote_14_0"
	"and_l_vote_14_0" -> "or__0_1"
	"and_l_vote_14_0" -> "0_4"
	"and_r_vote_13_0" -> "0_5"
	"and_r_vote_13_0" -> "and_rr_vote_13_0"
	"and_l_vote_13_0" -> "or__0_1"
	"and_l_vote_13_0" -> "or__0_3"
	"and_rr_vote_12_0" -> "or__0_6"
	"and_rr_vote_12_0" -> "or__0_7"
	"and_rr_vote_11_0" -> "0_5"
	"and_rr_vote_11_0" -> "or__0_7"
	"and_rr_vote_10_0" -> "0_5"
	"and_rr_vote_10_0" -> "or__0_6"
	"and_r_vote_9_0" -> "0_5"
	"and_r_vote_9_0" -> "and_rr_vote_9_0"
	"and_l_vote_9_0" -> "or__0_1"
	"and_l_vote_9_0" -> "vote_or_0_2"
	"and_r_vote_8_0" -> "0_4"
	"and_r_vote_8_0" -> "and_rr_vote_8_0"
	"and_l_vote_8_0" -> "or__0_1"
	"and_l_vote_8_0" -> "vote_or_0_2"
	"and_rr_vote_7_0" -> "0_5"
	"and_rr_vote_7_0" -> "or__0_7"
	"and_rr_vote_6_0" -> "0_5"
	"and_rr_vote_6_0" -> "or__0_6"
	"and_rr_vote_5_0" -> "or__0_6"
	"and_rr_vote_5_0" -> "or__0_7"
	"and_r_vote_4_0" -> "or__0_3"
	"and_r_vote_4_0" -> "and_rr_vote_4_0"
	"and_l_vote_4_0" -> "or__0_1"
	"and_l_vote_4_0" -> "vote_or_0_2"
	"and_r_vote_3_0" -> "or__0_3"
	"and_r_vote_3_0" -> "and_rr_vote_3_0"
	"and_l_vote_3_0" -> "or__0_1"
	"and_l_vote_3_0" -> "vote_or_0_2"
	"and_rr_vote_2_0" -> "0_4"
	"and_rr_vote_2_0" -> "or__0_7"
	"and_rr_vote_1_0" -> "0_4"
	"and_rr_vote_1_0" -> "or__0_6"
	"and_rr_vote_0_0" -> "0_4"
	"and_rr_vote_0_0" -> "0_5"
	"and__vote_20_0" -> "and_l_vote_20_0"
	"and__vote_20_0" -> "and_r_vote_20_0"
	"and__vote_19_0" -> "and_l_vote_19_0"
	"and__vote_19_0" -> "and_r_vote_19_0"
	"and_r_vote_18_0" -> "0_5"
	"and_r_vote_18_0" -> "and_rr_vote_18_0"
	"and_l_vote_18_0" -> "vote_or_0_2"
	"and_l_vote_18_0" -> "or__0_3"
	"and__vote_17_0" -> "and_l_vote_17_0"
	"and__vote_17_0" -> "and_r_vote_17_0"
	"and__vote_16_0" -> "and_l_vote_16_0"
	"and__vote_16_0" -> "and_r_vote_16_0"
	"and_r_vote_15_0" -> "0_4"
	"and_r_vote_15_0" -> "and_rr_vote_15_0"
	"and_l_vote_15_0" -> "vote_or_0_2"
	"and_l_vote_15_0" -> "or__0_3"
	"and__vote_14_0" -> "and_l_vote_14_0"
	"and__vote_14_0" -> "and_r_vote_14_0"
	"and__vote_13_0" -> "and_l_vote_13_0"
	"and__vote_13_0" -> "and_r_vote_13_0"
	"and_r_vote_12_0" -> "0_4"
	"and_r_vote_12_0" -> "and_rr_vote_12_0"
	"and_l_vote_12_0" -> "or__0_1"
	"and_l_vote_12_0" -> "or__0_3"
	"and_r_vote_11_0" -> "0_4"
	"and_r_vote_11_0" -> "and_rr_vote_11_0"
	"and_l_vote_11_0" -> "or__0_1"
	"and_l_vote_11_0" -> "or__0_3"
	"and_r_vote_10_0" -> "0_4"
	"and_r_vote_10_0" -> "and_rr_vote_10_0"
	"and_l_vote_10_0" -> "or__0_1"
	"and_l_vote_10_0" -> "or__0_3"
	"and__vote_9_0" -> "and_l_vote_9_0"
	"and__vote_9_0" -> "and_r_vote_9_0"
	"and__vote_8_0" -> "and_l_vote_8_0"
	"and__vote_8_0" -> "and_r_vote_8_0"
	"and_r_vote_7_0" -> "0_4"
	"and_r_vote_7_0" -> "and_rr_vote_7_0"
	"and_l_vote_7_0" -> "or__0_1"
	"and_l_vote_7_0" -> "vote_or_0_2"
	"and_r_vote_6_0" -> "0_4"
	"and_r_vote_6_0" -> "and_rr_vote_6_0"
	"and_l_vote_6_0" -> "or__0_1"
	"and_l_vote_6_0" -> "vote_or_0_2"
	"and_r_vote_5_0" -> "or__0_3"
	"and_r_vote_5_0" -> "and_rr_vote_5_0"
	"and_l_vote_5_0" -> "or__0_1"
	"and_l_vote_5_0" -> "vote_or_0_2"
	"and__vote_4_0" -> "and_l_vote_4_0"
	"and__vote_4_0" -> "and_r_vote_4_0"
	"and__vote_3_0" -> "and_l_vote_3_0"
	"and__vote_3_0" -> "and_r_vote_3_0"
	"and_r_vote_2_0" -> "or__0_3"
	"and_r_vote_2_0" -> "and_rr_vote_2_0"
	"and_l_vote_2_0" -> "or__0_1"
	"and_l_vote_2_0" -> "vote_or_0_2"
	"and_r_vote_1_0" -> "or__0_3"
	"and_r_vote_1_0" -> "and_rr_vote_1_0"
	"and_l_vote_1_0" -> "or__0_1"
	"and_l_vote_1_0" -> "vote_or_0_2"
	"and_r_vote_0_0" -> "or__0_3"
	"and_r_vote_0_0" -> "and_rr_vote_0_0"
	"and_l_vote_0_0" -> "or__0_1"
	"and_l_vote_0_0" -> "vote_or_0_2"
	"or_rrrr_vote_or_0" -> "and__vote_19_0"
	"or_rrrr_vote_or_0" -> "and__vote_20_0"
	"and__vote_18_0" -> "and_l_vote_18_0"
	"and__vote_18_0" -> "and_r_vote_18_0"
	"or_rrlr_vote_or_0" -> "and__vote_16_0"
	"or_rrlr_vote_or_0" -> "and__vote_17_0"
	"and__vote_15_0" -> "and_l_vote_15_0"
	"and__vote_15_0" -> "and_r_vote_15_0"
	"or_rlrr_vote_or_0" -> "and__vote_13_0"
	"or_rlrr_vote_or_0" -> "and__vote_14_0"
	"and__vote_12_0" -> "and_l_vote_12_0"
	"and__vote_12_0" -> "and_r_vote_12_0"
	"and__vote_11_0" -> "and_l_vote_11_0"
	"and__vote_11_0" -> "and_r_vote_11_0"
	"and__vote_10_0" -> "and_l_vote_10_0"
	"and__vote_10_0" -> "and_r_vote_10_0"
	"or_lrrr_vote_or_0" -> "and__vote_8_0"
	"or_lrrr_vote_or_0" -> "and__vote_9_0"
	"and__vote_7_0" -> "and_l_vote_7_0"
	"and__vote_7_0" -> "and_r_vote_7_0"
	"and__vote_6_0" -> "and_l_vote_6_0"
	"and__vote_6_0" -> "and_r_vote_6_0"
	"and__vote_5_0" -> "and_l_vote_5_0"
	"and__vote_5_0" -> "and_r_vote_5_0"
	"or_llrr_vote_or_0" -> "and__vote_3_0"
	"or_llrr_vote_or_0" -> "and__vote_4_0"
	"and__vote_2_0" -> "and_l_vote_2_0"
	"and__vote_2_0" -> "and_r_vote_2_0"
	"and__vote_1_0" -> "and_l_vote_1_0"
	"and__vote_1_0" -> "and_r_vote_1_0"
	"and__vote_0_0" -> "and_l_vote_0_0"
	"and__vote_0_0" -> "and_r_vote_0_0"
	"or_rrr_vote_or_0" -> "and__vote_18_0"
	"or_rrr_vote_or_0" -> "or_rrrr_vote_or_0"
	"or_rrl_vote_or_0" -> "and__vote_15_0"
	"or_rrl_vote_or_0" -> "or_rrlr_vote_or_0"
	"or_rlr_vote_or_0" -> "and__vote_12_0"
	"or_rlr_vote_or_0" -> "or_rlrr_vote_or_0"
	"or_rll_vote_or_0" -> "and__vote_10_0"
	"or_rll_vote_or_0" -> "and__vote_11_0"
	"or_lrr_vote_or_0" -> "and__vote_7_0"
	"or_lrr_vote_or_0" -> "or_lrrr_vote_or_0"
	"or_lrl_vote_or_0" -> "and__vote_5_0"
	"or_lrl_vote_or_0" -> "and__vote_6_0"
	"or_llr_vote_or_0" -> "and__vote_2_0"
	"or_llr_vote_or_0" -> "or_llrr_vote_or_0"
	"or_lll_vote_or_0" -> "and__vote_0_0"
	"or_lll_vote_or_0" -> "and__vote_1_0"
	"or_rr_vote_or_0" -> "or_rrl_vote_or_0"
	"or_rr_vote_or_0" -> "or_rrr_vote_or_0"
	"or_rl_vote_or_0" -> "or_rll_vote_or_0"
	"or_rl_vote_or_0" -> "or_rlr_vote_or_0"
	"or_lr_vote_or_0" -> "or_lrl_vote_or_0"
	"or_lr_vote_or_0" -> "or_lrr_vote_or_0"
	"or_ll_vote_or_0" -> "or_lll_vote_or_0"
	"or_ll_vote_or_0" -> "or_llr_vote_or_0"
	"or_r_vote_or_0" -> "or_rl_vote_or_0"
	"or_r_vote_or_0" -> "or_rr_vote_or_0"
	"or_l_vote_or_0" -> "or_ll_vote_or_0"
	"or_l_vote_or_0" -> "or_lr_vote_or_0"
	"or__vote_or_0" -> "or_l_vote_or_0"
	"or__vote_or_0" -> "or_r_vote_or_0"
}