digraph G{ 
	"0_2_1_5" [ shape = circle ]
	"0_2_1_4" [ shape = circle ]
	"or_rr_vote_or_0_2_1" [ shape = cilinder ]
	"0_2_1_3" [ shape = circle ]
	"0_2_1_2" [ shape = circle ]
	"0_2_1_1" [ shape = circle ]
	"or_r_vote_or_0_2_1" [ shape = cilinder ]
	"or_l_vote_or_0_2_1" [ shape = cilinder ]
	"0_4_1" [ shape = circle ]
	"0_3" [ shape = circle ]
	"or__vote_or_0_2_1" [ shape = cilinder ]
	"0_1" [ shape = circle ]
	"or_r_0" [ shape = cilinder ]
	"or_l_0" [ shape = cilinder ]
	"or__0" [ shape = cilinder ]
	"or_rr_vote_or_0_2_1" -> "0_2_1_4"
	"or_rr_vote_or_0_2_1" -> "0_2_1_5"
	"or_r_vote_or_0_2_1" -> "0_2_1_3"
	"or_r_vote_or_0_2_1" -> "or_rr_vote_or_0_2_1"
	"or_l_vote_or_0_2_1" -> "0_2_1_1"
	"or_l_vote_or_0_2_1" -> "0_2_1_2"
	"or__vote_or_0_2_1" -> "or_l_vote_or_0_2_1"
	"or__vote_or_0_2_1" -> "or_r_vote_or_0_2_1"
	"or_r_0" -> "0_3"
	"or_r_0" -> "0_4_1"
	"or_l_0" -> "0_1"
	"or_l_0" -> "or__vote_or_0_2_1"
	"or__0" -> "or_l_0"
	"or__0" -> "or_r_0"
}