[
    {
        "name": "0_1_1_1_1_1"
    },
    {
        "name": "0_1_1_1_1_2"
    },
    {
        "name": "0_1_1_1_1_3"
    },
    {
        "name": "0_1_1_1_1",
        "gate": {
            "type": "vote",
            "count": 1
        },
        "causes": [
            "0_1_1_1_1_1",
            "0_1_1_1_1_2",
            "0_1_1_1_1_3"
        ]
    },
    {
        "name": "0_1_1_1",
        "gate": {
            "type": "and"
        },
        "causes": [
            "0_1_1_1_1"
        ]
    },
    {
        "name": "0_1_1_2_1_1"
    },
    {
        "name": "0_1_1_2_1_2"
    },
    {
        "name": "0_1_1_2_1",
        "gate": {
            "type": "vote",
            "count": 1
        },
        "causes": [
            "0_1_1_2_1_1",
            "0_1_1_2_1_2"
        ]
    },
    {
        "name": "0_1_1_2_2"
    },
    {
        "name": "0_1_1_2_3_1"
    },
    {
        "name": "0_1_1_2_3",
        "gate": {
            "type": "vote",
            "count": 1
        },
        "causes": [
            "0_1_1_2_3_1"
        ]
    },
    {
        "name": "0_1_1_2",
        "gate": {
            "type": "or"
        },
        "causes": [
            "0_1_1_2_1",
            "0_1_1_2_2",
            "0_1_1_2_3"
        ]
    },
    {
        "name": "0_1_1",
        "gate": {
            "type": "and"
        },
        "causes": [
            "0_1_1_1",
            "0_1_1_2"
        ]
    },
    {
        "name": "0_1_2_1_1_1"
    },
    {
        "name": "0_1_2_1_1_2"
    },
    {
        "name": "0_1_2_1_1_3"
    },
    {
        "name": "0_1_2_1_1",
        "gate": {
            "type": "vote",
            "count": 2
        },
        "causes": [
            "0_1_2_1_1_1",
            "0_1_2_1_1_2",
            "0_1_2_1_1_3"
        ]
    },
    {
        "name": "0_1_2_1_2_1"
    },
    {
        "name": "0_1_2_1_2",
        "gate": {
            "type": "and"
        },
        "causes": [
            "0_1_2_1_2_1"
        ]
    },
    {
        "name": "0_1_2_1_3_1"
    },
    {
        "name": "0_1_2_1_3",
        "gate": {
            "type": "vote",
            "count": 1
        },
        "causes": [
            "0_1_2_1_3_1"
        ]
    },
    {
        "name": "0_1_2_1",
        "gate": {
            "type": "or"
        },
        "causes": [
            "0_1_2_1_1",
            "0_1_2_1_2",
            "0_1_2_1_3"
        ]
    },
    {
        "name": "0_1_2_2"
    },
    {
        "name": "0_1_2_3"
    },
    {
        "name": "0_1_2",
        "gate": {
            "type": "and"
        },
        "causes": [
            "0_1_2_1",
            "0_1_2_2",
            "0_1_2_3"
        ]
    },
    {
        "name": "0_1_3"
    },
    {
        "name": "0_1",
        "gate": {
            "type": "or"
        },
        "causes": [
            "0_1_1",
            "0_1_2",
            "0_1_3"
        ]
    },
    {
        "name": "0_2_1"
    },
    {
        "name": "0_2",
        "gate": {
            "type": "and"
        },
        "causes": [
            "0_2_1"
        ]
    },
    {
        "name": "0_3_1_1_1_1"
    },
    {
        "name": "0_3_1_1_1_2"
    },
    {
        "name": "0_3_1_1_1_3"
    },
    {
        "name": "0_3_1_1_1",
        "gate": {
            "type": "or"
        },
        "causes": [
            "0_3_1_1_1_1",
            "0_3_1_1_1_2",
            "0_3_1_1_1_3"
        ]
    },
    {
        "name": "0_3_1_1",
        "gate": {
            "type": "and"
        },
        "causes": [
            "0_3_1_1_1"
        ]
    },
    {
        "name": "0_3_1_2_1_1"
    },
    {
        "name": "0_3_1_2_1_2"
    },
    {
        "name": "0_3_1_2_1_3"
    },
    {
        "name": "0_3_1_2_1",
        "gate": {
            "type": "or"
        },
        "causes": [
            "0_3_1_2_1_1",
            "0_3_1_2_1_2",
            "0_3_1_2_1_3"
        ]
    },
    {
        "name": "0_3_1_2",
        "gate": {
            "type": "or"
        },
        "causes": [
            "0_3_1_2_1"
        ]
    },
    {
        "name": "0_3_1_3"
    },
    {
        "name": "0_3_1_4_1_1"
    },
    {
        "name": "0_3_1_4_1",
        "gate": {
            "type": "or"
        },
        "causes": [
            "0_3_1_4_1_1"
        ]
    },
    {
        "name": "0_3_1_4_2"
    },
    {
        "name": "0_3_1_4_3"
    },
    {
        "name": "0_3_1_4",
        "gate": {
            "type": "vote",
            "count": 1
        },
        "causes": [
            "0_3_1_4_1",
            "0_3_1_4_2",
            "0_3_1_4_3"
        ]
    },
    {
        "name": "0_3_1",
        "gate": {
            "type": "and"
        },
        "causes": [
            "0_3_1_1",
            "0_3_1_2",
            "0_3_1_3",
            "0_3_1_4"
        ]
    },
    {
        "name": "0_3",
        "gate": {
            "type": "or"
        },
        "causes": [
            "0_3_1"
        ]
    },
    {
        "name": "0_4_1"
    },
    {
        "name": "0_4_2"
    },
    {
        "name": "0_4_3"
    },
    {
        "name": "0_4_4_1_1_1"
    },
    {
        "name": "0_4_4_1_1_2"
    },
    {
        "name": "0_4_4_1_1_3"
    },
    {
        "name": "0_4_4_1_1_4"
    },
    {
        "name": "0_4_4_1_1",
        "gate": {
            "type": "vote",
            "count": 3
        },
        "causes": [
            "0_4_4_1_1_1",
            "0_4_4_1_1_2",
            "0_4_4_1_1_3",
            "0_4_4_1_1_4"
        ]
    },
    {
        "name": "0_4_4_1_2"
    },
    {
        "name": "0_4_4_1_3_1"
    },
    {
        "name": "0_4_4_1_3",
        "gate": {
            "type": "and"
        },
        "causes": [
            "0_4_4_1_3_1"
        ]
    },
    {
        "name": "0_4_4_1",
        "gate": {
            "type": "and"
        },
        "causes": [
            "0_4_4_1_1",
            "0_4_4_1_2",
            "0_4_4_1_3"
        ]
    },
    {
        "name": "0_4_4_2_1_1"
    },
    {
        "name": "0_4_4_2_1_2"
    },
    {
        "name": "0_4_4_2_1",
        "gate": {
            "type": "and"
        },
        "causes": [
            "0_4_4_2_1_1",
            "0_4_4_2_1_2"
        ]
    },
    {
        "name": "0_4_4_2_2"
    },
    {
        "name": "0_4_4_2",
        "gate": {
            "type": "or"
        },
        "causes": [
            "0_4_4_2_1",
            "0_4_4_2_2"
        ]
    },
    {
        "name": "0_4_4_3"
    },
    {
        "name": "0_4_4_4_1_1"
    },
    {
        "name": "0_4_4_4_1_2"
    },
    {
        "name": "0_4_4_4_1_3"
    },
    {
        "name": "0_4_4_4_1",
        "gate": {
            "type": "or"
        },
        "causes": [
            "0_4_4_4_1_1",
            "0_4_4_4_1_2",
            "0_4_4_4_1_3"
        ]
    },
    {
        "name": "0_4_4_4_2"
    },
    {
        "name": "0_4_4_4_3_1"
    },
    {
        "name": "0_4_4_4_3",
        "gate": {
            "type": "vote",
            "count": 1
        },
        "causes": [
            "0_4_4_4_3_1"
        ]
    },
    {
        "name": "0_4_4_4_4"
    },
    {
        "name": "0_4_4_4",
        "gate": {
            "type": "vote",
            "count": 3
        },
        "causes": [
            "0_4_4_4_1",
            "0_4_4_4_2",
            "0_4_4_4_3",
            "0_4_4_4_4"
        ]
    },
    {
        "name": "0_4_4",
        "gate": {
            "type": "or"
        },
        "causes": [
            "0_4_4_1",
            "0_4_4_2",
            "0_4_4_3",
            "0_4_4_4"
        ]
    },
    {
        "name": "0_4",
        "gate": {
            "type": "vote",
            "count": 2
        },
        "causes": [
            "0_4_1",
            "0_4_2",
            "0_4_3",
            "0_4_4"
        ]
    },
    {
        "name": "0",
        "gate": {
            "type": "vote",
            "count": 3
        },
        "causes": [
            "0_1",
            "0_2",
            "0_3",
            "0_4"
        ]
    }
]