[
    {
        "name": "0_1_1_1_1_1"
    },
    {
        "name": "0_1_1_1_1",
        "gate": {
            "type": "or"
        },
        "causes": [
            "0_1_1_1_1_1"
        ]
    },
    {
        "name": "0_1_1_1_2_1"
    },
    {
        "name": "0_1_1_1_2",
        "gate": {
            "type": "and"
        },
        "causes": [
            "0_1_1_1_2_1"
        ]
    },
    {
        "name": "0_1_1_1",
        "gate": {
            "type": "or"
        },
        "causes": [
            "0_1_1_1_1",
            "0_1_1_1_2"
        ]
    },
    {
        "name": "0_1_1",
        "gate": {
            "type": "and"
        },
        "causes": [
            "0_1_1_1"
        ]
    },
    {
        "name": "0_1_2"
    },
    {
        "name": "0_1",
        "gate": {
            "type": "or"
        },
        "causes": [
            "0_1_1",
            "0_1_2",
            "0_1_1",
            "0_1_2"
        ]
    },
    {
        "name": "0",
        "gate": {
            "type": "or"
        },
        "causes": [
            "0_1"
        ]
    }
]