[
    {
        "name": "0_1_1_1"
    },
    {
        "name": "0_1_1_2_1_1"
    },
    {
        "name": "0_1_1_2_1_2"
    },
    {
        "name": "0_1_1_2_1",
        "gate": {
            "type": "vote",
            "count": 1
        },
        "causes": [
            "0_1_1_2_1_1",
            "0_1_1_2_1_2"
        ]
    },
    {
        "name": "0_1_1_2_3_1"
    },
    {
        "name": "0_1_1_2_3_2"
    },
    {
        "name": "0_1_1_2_3",
        "gate": {
            "type": "vote",
            "count": 1
        },
        "causes": [
            "0_1_1_2_3_1",
            "0_1_1_2_3_2"
        ]
    },
    {
        "name": "0_1_1_2",
        "gate": {
            "type": "vote",
            "count": 1
        },
        "causes": [
            "0_1_1_2_1",
            "0_1_1_2_1",
            "0_1_1_2_3"
        ]
    },
    {
        "name": "0_1_1",
        "gate": {
            "type": "vote",
            "count": 1
        },
        "causes": [
            "0_1_1_1",
            "0_1_1_2"
        ]
    },
    {
        "name": "0_1_2"
    },
    {
        "name": "0_1",
        "gate": {
            "type": "or"
        },
        "causes": [
            "0_1_1",
            "0_1_2"
        ]
    },
    {
        "name": "0_2_1"
    },
    {
        "name": "0_2_2",
        "gate": {
            "type": "or"
        },
        "causes": [
            "0_1"
        ]
    },
    {
        "name": "0_2",
        "gate": {
            "type": "and"
        },
        "causes": [
            "0_2_1",
            "0_2_2"
        ]
    },
    {
        "name": "0_3"
    },
    {
        "name": "0_4_1"
    },
    {
        "name": "0_4",
        "gate": {
            "type": "vote",
            "count": 1
        },
        "causes": [
            "0_4_1"
        ]
    },
    {
        "name": "0",
        "gate": {
            "type": "or"
        },
        "causes": [
            "0_1",
            "0_2",
            "0_3",
            "0_4"
        ]
    }
]