[
    {
        "name": "0_1_1"
    },
    {
        "name": "0_1_2_2",
        "gate": {
            "type": "and"
        },
        "causes": [
            "0_1_1"
        ]
    },
    {
        "name": "0_1_2_3_1"
    },
    {
        "name": "0_1_2_3_2_1"
    },
    {
        "name": "0_1_2_3_2",
        "gate": {
            "type": "and"
        },
        "causes": [
            "0_1_2_3_2_1"
        ]
    },
    {
        "name": "0_1_2_3",
        "gate": {
            "type": "or"
        },
        "causes": [
            "0_1_2_3_1",
            "0_1_2_3_2"
        ]
    },
    {
        "name": "0_1_2",
        "gate": {
            "type": "vote",
            "count": 2
        },
        "causes": [
            "0_1_1",
            "0_1_2_2",
            "0_1_2_3"
        ]
    },
    {
        "name": "0_1_3"
    },
    {
        "name": "0_1",
        "gate": {
            "type": "and"
        },
        "causes": [
            "0_1_1",
            "0_1_2",
            "0_1_3",
            "0_1_1"
        ]
    },
    {
        "name": "0",
        "gate": {
            "type": "or"
        },
        "causes": [
            "0_1"
        ]
    }
]