[
    {
        "name": "0_1"
    },
    {
        "name": "0_2_1_1"
    },
    {
        "name": "0_2_1_2"
    },
    {
        "name": "0_2_1_3"
    },
    {
        "name": "0_2_1_4"
    },
    {
        "name": "0_2_1_5"
    },
    {
        "name": "0_2_1_6"
    },
    {
        "name": "0_2_1_7"
    },
    {
        "name": "0_2_1_8"
    },
    {
        "name": "0_2_1_9"
    },
    {
        "name": "0_2_1",
        "gate": {
            "type": "and"
        },
        "causes": [
            "0_2_1_1",
            "0_2_1_2",
            "0_2_1_3",
            "0_2_1_4",
            "0_2_1_5",
            "0_2_1_6",
            "0_2_1_7",
            "0_2_1_8",
            "0_2_1_9"
        ]
    },
    {
        "name": "0_2_2_1"
    },
    {
        "name": "0_2_2",
        "gate": {
            "type": "vote",
            "count": 1
        },
        "causes": [
            "0_2_2_1"
        ]
    },
    {
        "name": "0_2_3_1"
    },
    {
        "name": "0_2_3_2"
    },
    {
        "name": "0_2_3_3"
    },
    {
        "name": "0_2_3_4"
    },
    {
        "name": "0_2_3_5"
    },
    {
        "name": "0_2_3",
        "gate": {
            "type": "vote",
            "count": 4
        },
        "causes": [
            "0_2_3_1",
            "0_2_3_2",
            "0_2_3_3",
            "0_2_3_4",
            "0_2_3_5"
        ]
    },
    {
        "name": "0_2",
        "gate": {
            "type": "and"
        },
        "causes": [
            "0_2_1",
            "0_2_2",
            "0_2_3"
        ]
    },
    {
        "name": "0_3"
    },
    {
        "name": "0_4"
    },
    {
        "name": "0_5_1_1"
    },
    {
        "name": "0_5_1_2"
    },
    {
        "name": "0_5_1_3"
    },
    {
        "name": "0_5_1_4"
    },
    {
        "name": "0_5_1_5"
    },
    {
        "name": "0_5_1_6"
    },
    {
        "name": "0_5_1_7"
    },
    {
        "name": "0_5_1_8"
    },
    {
        "name": "0_5_1_9"
    },
    {
        "name": "0_5_1",
        "gate": {
            "type": "and"
        },
        "causes": [
            "0_5_1_1",
            "0_5_1_2",
            "0_5_1_3",
            "0_5_1_4",
            "0_5_1_5",
            "0_5_1_6",
            "0_5_1_7",
            "0_5_1_8",
            "0_5_1_9"
        ]
    },
    {
        "name": "0_5_2_1"
    },
    {
        "name": "0_5_2",
        "gate": {
            "type": "or"
        },
        "causes": [
            "0_5_2_1"
        ]
    },
    {
        "name": "0_5_3"
    },
    {
        "name": "0_5_4_1"
    },
    {
        "name": "0_5_4_2"
    },
    {
        "name": "0_5_4",
        "gate": {
            "type": "and"
        },
        "causes": [
            "0_5_4_1",
            "0_5_4_2"
        ]
    },
    {
        "name": "0_5_5_1"
    },
    {
        "name": "0_5_5_2"
    },
    {
        "name": "0_5_5_3"
    },
    {
        "name": "0_5_5",
        "gate": {
            "type": "and"
        },
        "causes": [
            "0_5_5_1",
            "0_5_5_2",
            "0_5_5_3"
        ]
    },
    {
        "name": "0_5_6_1"
    },
    {
        "name": "0_5_6_2"
    },
    {
        "name": "0_5_6_3"
    },
    {
        "name": "0_5_6",
        "gate": {
            "type": "or"
        },
        "causes": [
            "0_5_6_1",
            "0_5_6_2",
            "0_5_6_3"
        ]
    },
    {
        "name": "0_5",
        "gate": {
            "type": "or"
        },
        "causes": [
            "0_5_1",
            "0_5_2",
            "0_5_3",
            "0_5_4",
            "0_5_5",
            "0_5_6"
        ]
    },
    {
        "name": "0",
        "gate": {
            "type": "and"
        },
        "causes": [
            "0_1",
            "0_2",
            "0_3",
            "0_4",
            "0_5"
        ]
    }
]