[
    {
        "name": "0_1"
    },
    {
        "name": "0_2_1_1"
    },
    {
        "name": "0_2_1_2"
    },
    {
        "name": "0_2_1_3"
    },
    {
        "name": "0_2_1_4"
    },
    {
        "name": "0_2_1_5"
    },
    {
        "name": "0_2_1",
        "gate": {
            "type": "vote",
            "count": 1
        },
        "causes": [
            "0_2_1_1",
            "0_2_1_2",
            "0_2_1_3",
            "0_2_1_4",
            "0_2_1_5"
        ]
    },
    {
        "name": "0_2",
        "gate": {
            "type": "vote",
            "count": 1
        },
        "causes": [
            "0_2_1"
        ]
    },
    {
        "name": "0_3"
    },
    {
        "name": "0_4_1"
    },
    {
        "name": "0_4",
        "gate": {
            "type": "or"
        },
        "causes": [
            "0_4_1"
        ]
    },
    {
        "name": "0",
        "gate": {
            "type": "or"
        },
        "causes": [
            "0_1",
            "0_2",
            "0_3",
            "0_4"
        ]
    }
]