[
    {
        "name": "System",
        "gate": {
            "type": "or"
        },
        "causes": [
            "TAF",
            "BAF",
            "MLF",
            "BHF",
            "HF",
            "LHF"
        ]
    },
    {
        "name": "TAF",
        "gate": {
            "type": "or"
        },
        "causes": [
            "TAFfs",
            "TAFfp"
        ]
    },
    {
        "name": "BAF",
        "gate": {
            "type": "or"
        },
        "causes": [
            "BAFfc",
            "BAFac",
            "BAFasb",
            "BAFap"
        ]
    },
    {
        "name": "MLF",
        "gate": {
            "type": "or"
        },
        "causes": [
            "MLFfc",
            "MLFac",
            "MLFasb",
            "MLFap"
        ]
    },
    {
        "name": "BHF",
        "gate": {
            "type": "or"
        },
        "causes": [
            "BHFfc",
            "BHFac",
            "BHFas",
            "BHFap"
        ]
    },
    {
        "name": "HF",
        "gate": {
            "type": "or"
        },
        "causes": [
            "HFship",
            "HFland"
        ]
    },
    {
        "name": "BAFfc",
        "gate": {
            "type": "or"
        },
        "causes": [
            "BAFfcN",
            "BAFfcS",
            "BAFfcE",
            "BAFfcW"
        ]
    },
    {
        "name": "BAFac",
        "gate": {
            "type": "or"
        },
        "causes": [
            "BAFacN",
            "BAFacS",
            "BAFacE",
            "BAFacW"
        ]
    },
    {
        "name": "BAFasb",
        "gate": {
            "type": "or"
        },
        "causes": [
            "BAFasbN",
            "BAFasbS",
            "BAFasbE",
            "BAFasbW"
        ]
    },
    {
        "name": "BAFap",
        "gate": {
            "type": "or"
        },
        "causes": [
            "BAFapN",
            "BAFapS",
            "BAFapE",
            "BAFapW"
        ]
    },
    {
        "name": "LHF"
    },
    {
        "name": "TAFfs"
    },
    {
        "name": "TAFfp"
    },
    {
        "name": "MLFfc"
    },
    {
        "name": "MLFac"
    },
    {
        "name": "MLFasb"
    },
    {
        "name": "MLFap"
    },
    {
        "name": "BHFfc"
    },
    {
        "name": "BHFac"
    },
    {
        "name": "BHFas"
    },
    {
        "name": "BHFap"
    },
    {
        "name": "HFship"
    },
    {
        "name": "HFland"
    },
    {
        "name": "BAFfcN"
    },
    {
        "name": "BAFfcS"
    },
    {
        "name": "BAFfcE"
    },
    {
        "name": "BAFfcW"
    },
    {
        "name": "BAFacN"
    },
    {
        "name": "BAFacS"
    },
    {
        "name": "BAFacE"
    },
    {
        "name": "BAFacW"
    },
    {
        "name": "BAFasbN"
    },
    {
        "name": "BAFasbS"
    },
    {
        "name": "BAFasbE"
    },
    {
        "name": "BAFasbW"
    },
    {
        "name": "BAFapN"
    },
    {
        "name": "BAFapS"
    },
    {
        "name": "BAFapE"
    },
    {
        "name": "BAFapW"
    }
]