[
    {
        "name": "System",
        "gate": {
            "type": "or"
        },
        "causes": [
            "I_MatDef",
            "II_ManuProcDef",
            "III_DesMis",
            "IV_EqFail",
            "V_PerErr"
        ]
    },
    {
        "name": "I_MatDef",
        "gate": {
            "type": "or"
        },
        "causes": [
            "A",
            "B",
            "C"
        ]
    },
    {
        "name": "II_ManuProcDef",
        "gate": {
            "type": "or"
        },
        "causes": [
            "D",
            "E",
            "F",
            "G",
            "H",
            "I"
        ]
    },
    {
        "name": "III_DesMis",
        "gate": {
            "type": "or"
        },
        "causes": [
            "J",
            "K",
            "L"
        ]
    },
    {
        "name": "IV_EqFail",
        "gate": {
            "type": "or"
        },
        "causes": [
            "M",
            "N",
            "O",
            "P"
        ]
    },
    {
        "name": "V_PerErr",
        "gate": {
            "type": "or"
        },
        "causes": [
            "Q",
            "R",
            "S"
        ]
    },
    {
        "name": "A",
        "gate": {
            "type": "or"
        },
        "causes": [
            "A1",
            "A2",
            "A3"
        ]
    },
    {
        "name": "E",
        "gate": {
            "type": "or"
        },
        "causes": [
            "E1",
            "E2",
            "E3"
        ]
    },
    {
        "name": "F",
        "gate": {
            "type": "and"
        },
        "causes": [
            "F1",
            "F2"
        ]
    },
    {
        "name": "G",
        "gate": {
            "type": "or"
        },
        "causes": [
            "G1",
            "G2",
            "G3"
        ]
    },
    {
        "name": "H",
        "gate": {
            "type": "or"
        },
        "causes": [
            "H1",
            "H2",
            "H3"
        ]
    },
    {
        "name": "I",
        "gate": {
            "type": "or"
        },
        "causes": [
            "I1",
            "I2",
            "I3"
        ]
    },
    {
        "name": "J",
        "gate": {
            "type": "and"
        },
        "causes": [
            "J1",
            "J2"
        ]
    },
    {
        "name": "M",
        "gate": {
            "type": "or"
        },
        "causes": [
            "M1",
            "M2",
            "M3"
        ]
    },
    {
        "name": "N",
        "gate": {
            "type": "and"
        },
        "causes": [
            "N1",
            "N2",
            "N3"
        ]
    },
    {
        "name": "A1"
    },
    {
        "name": "A2"
    },
    {
        "name": "A3"
    },
    {
        "name": "B"
    },
    {
        "name": "C"
    },
    {
        "name": "D"
    },
    {
        "name": "E1"
    },
    {
        "name": "E2"
    },
    {
        "name": "E3"
    },
    {
        "name": "F1"
    },
    {
        "name": "F2"
    },
    {
        "name": "G1"
    },
    {
        "name": "G2"
    },
    {
        "name": "G3"
    },
    {
        "name": "H1"
    },
    {
        "name": "H2"
    },
    {
        "name": "H3"
    },
    {
        "name": "I1"
    },
    {
        "name": "I2"
    },
    {
        "name": "I3"
    },
    {
        "name": "J1"
    },
    {
        "name": "J2"
    },
    {
        "name": "K"
    },
    {
        "name": "L"
    },
    {
        "name": "M1"
    },
    {
        "name": "M2"
    },
    {
        "name": "M3"
    },
    {
        "name": "N1"
    },
    {
        "name": "N2"
    },
    {
        "name": "N3"
    },
    {
        "name": "O"
    },
    {
        "name": "P"
    },
    {
        "name": "Q"
    },
    {
        "name": "R"
    },
    {
        "name": "S"
    }
]