[
    {
        "name": "Tank ruptures due to improper selection of installation (wrong tank)"
    },
    {
        "name": "Tank rupture"
    },
    {
        "name": "Secondary tank failure from other out-of-tolerance conditions"
    },
    {
        "name": "K2 Relay (secondary failure)"
    },
    {
        "name": "K2 Relay contacts fail to open"
    },
    {
        "name": "Excess pressure not sensed by pressure actuated switch"
    },
    {
        "name": "Pressure switch contacts fail to open"
    },
    {
        "name": "Pressure switch (secondary failure)"
    },
    {
        "name": "Pressure switch contacts closed for t>60 sec",
        "gate": {
            "type": "or"
        },
        "causes": [
            "Excess pressure not sensed by pressure actuated switch",
            "Pressure switch contacts fail to open",
            "Pressure switch (secondary failure)"
        ]
    },
    {
        "name": "K1 Relay contacts fail to open"
    },
    {
        "name": "K1 Relay (secondary failure)"
    },
    {
        "name": "Timer does not 'time out' due to improper installation or setting"
    },
    {
        "name": "Timer relay contacts fail to open"
    },
    {
        "name": "Timer relay (secondary failure)"
    },
    {
        "name": "EMF not removed from K1 Relay coil when pressure switch contacts closed for t>60 sec",
        "gate": {
            "type": "or"
        },
        "causes": [
            "Timer does not 'time out' due to improper installation or setting",
            "Timer relay contacts fail to open",
            "Timer relay (secondary failure)"
        ]
    },
    {
        "name": "EMF trhu K1 Relay contacts when pressure switch contacts closed for t>60 sec",
        "gate": {
            "type": "or"
        },
        "causes": [
            "K1 Relay contacts fail to open",
            "K1 Relay (secondary failure)",
            "EMF not removed from K1 Relay coil when pressure switch contacts closed for t>60 sec"
        ]
    },
    {
        "name": "External reset actuation force remains on switch S1"
    },
    {
        "name": "S1 switch contacts fail to open"
    },
    {
        "name": "S1 switch (secondary failure)"
    },
    {
        "name": "EMF thru S1 switch contacts when pressure switch contacts closed for t>60 sec",
        "gate": {
            "type": "or"
        },
        "causes": [
            "External reset actuation force remains on switch S1",
            "S1 switch contacts fail to open",
            "S1 switch (secondary failure)"
        ]
    },
    {
        "name": "EMF remains on pressure switch contacts when pressure switch contacts closed for t>60 sec",
        "gate": {
            "type": "or"
        },
        "causes": [
            "EMF trhu K1 Relay contacts when pressure switch contacts closed for t>60 sec",
            "EMF thru S1 switch contacts when pressure switch contacts closed for t>60 sec"
        ]
    },
    {
        "name": "EMF applied to K2 Relay coil for t>60 sec",
        "gate": {
            "type": "and"
        },
        "causes": [
            "Pressure switch contacts closed for t>60 sec",
            "EMF remains on pressure switch contacts when pressure switch contacts closed for t>60 sec"
        ]
    },
    {
        "name": "Tank ruptures due to internal over-pressure caused by continuous pump operation for t > 60 sec",
        "gate": {
            "type": "or"
        },
        "causes": [
            "K2 Relay (secondary failure)",
            "K2 Relay contacts fail to open",
            "EMF applied to K2 Relay coil for t>60 sec"
        ]
    },
    {
        "name": "Tank rupture (secondary failure)",
        "gate": {
            "type": "or"
        },
        "causes": [
            "Secondary tank failure from other out-of-tolerance conditions",
            "Tank ruptures due to internal over-pressure caused by continuous pump operation for t > 60 sec"
        ]
    },
    {
        "name": "Rupture of pressure tank after the start of pumping",
        "gate": {
            "type": "or"
        },
        "causes": [
            "Tank ruptures due to improper selection of installation (wrong tank)",
            "Tank rupture",
            "Tank rupture (secondary failure)"
        ]
    }
]