[
    {
        "name": "Connection"
    },
    {
        "name": "Battery"
    },
    {
        "name": "Engine"
    },
    {
        "name": "Power",
        "gate": {
            "type": "and"
        },
        "causes": [
            "Battery",
            "Engine"
        ]
    },
    {
        "name": "Phone",
        "gate": {
            "type": "or"
        },
        "causes": [
            "Connection",
            "Power"
        ]
    },
    {
        "name": "Tire 1"
    },
    {
        "name": "Tire 2"
    },
    {
        "name": "Tire 3"
    },
    {
        "name": "Tire 4"
    },
    {
        "name": "Spare"
    },
    {
        "name": "Tires",
        "gate": {
            "type": "vote",
            "count": 2
        },
        "causes": [
            "Tire 1",
            "Tire 2",
            "Tire 3",
            "Tire 4",
            "Spare"
        ]
    },
    {
        "name": "Car",
        "gate": {
            "type": "or"
        },
        "causes": [
            "Engine",
            "Tires"
        ]
    },
    {
        "name": "Road trip",
        "gate": {
            "type": "and"
        },
        "causes": [
            "Phone",
            "Car"
        ]
    }
]