digraph G{ 
	"Cable 5.2" [ shape = circle ]
	"Switch 2" [ shape = circle ]
	"Cable 5.1" [ shape = circle ]
	"Switch 1" [ shape = circle ]
	"Cable 4.2" [ shape = circle ]
	"Cable 4.1" [ shape = circle ]
	"Cores #2 connected to system #5 fail" [ shape = cilinder ]
	"Cores #1 connected to system #5 fail" [ shape = cilinder ]
	"Cores #2 connected to system #4 fail" [ shape = cilinder ]
	"Cores #1 connected to system #4 fail" [ shape = cilinder ]
	"Cable 3.2" [ shape = circle ]
	"Cable 3.1" [ shape = circle ]
	"Cable 2.2" [ shape = circle ]
	"Cable 2.1" [ shape = circle ]
	"Cable 1.2" [ shape = circle ]
	"Cable 1.1" [ shape = circle ]
	"Cores connected to system #5 fail" [ shape = trapezium ]
	"Server 5" [ shape = circle ]
	"Cores connected to system #4 fail" [ shape = trapezium ]
	"Server 4" [ shape = circle ]
	"Cores #2 connected to system #3 fail" [ shape = cilinder ]
	"Cores #1 connected to system #3 fail" [ shape = cilinder ]
	"Cores #2 connected to system #2 fail" [ shape = cilinder ]
	"Cores #1 connected to system #2 fail" [ shape = cilinder ]
	"Cores #2 connected to system #1 fail" [ shape = cilinder ]
	"Cores #1 connected to system #1 fail" [ shape = cilinder ]
	"Server system #5 fails" [ shape = cilinder ]
	"Server system #4 fails" [ shape = cilinder ]
	"Cores connected to system #3 fail" [ shape = trapezium ]
	"Server 3" [ shape = circle ]
	"Cores connected to system #2 fail" [ shape = trapezium ]
	"Server 2" [ shape = circle ]
	"Cores connected to system #1 fail" [ shape = trapezium ]
	"Server 1" [ shape = circle ]
	"and_rr_System fails" [ shape = trapezium ]
	"Server system #3 fails" [ shape = cilinder ]
	"Server system #2 fails" [ shape = cilinder ]
	"Server system #1 fails" [ shape = cilinder ]
	"and_r_System fails" [ shape = trapezium ]
	"and_l_System fails" [ shape = trapezium ]
	"and__System fails" [ shape = trapezium ]
	"Cores #2 connected to system #5 fail" -> "Switch 2"
	"Cores #2 connected to system #5 fail" -> "Cable 5.2"
	"Cores #1 connected to system #5 fail" -> "Switch 1"
	"Cores #1 connected to system #5 fail" -> "Cable 5.1"
	"Cores #2 connected to system #4 fail" -> "Switch 2"
	"Cores #2 connected to system #4 fail" -> "Cable 4.2"
	"Cores #1 connected to system #4 fail" -> "Switch 1"
	"Cores #1 connected to system #4 fail" -> "Cable 4.1"
	"Cores connected to system #5 fail" -> "Cores #1 connected to system #5 fail"
	"Cores connected to system #5 fail" -> "Cores #2 connected to system #5 fail"
	"Cores connected to system #4 fail" -> "Cores #1 connected to system #4 fail"
	"Cores connected to system #4 fail" -> "Cores #2 connected to system #4 fail"
	"Cores #2 connected to system #3 fail" -> "Switch 2"
	"Cores #2 connected to system #3 fail" -> "Cable 3.2"
	"Cores #1 connected to system #3 fail" -> "Switch 1"
	"Cores #1 connected to system #3 fail" -> "Cable 3.1"
	"Cores #2 connected to system #2 fail" -> "Switch 2"
	"Cores #2 connected to system #2 fail" -> "Cable 2.2"
	"Cores #1 connected to system #2 fail" -> "Switch 1"
	"Cores #1 connected to system #2 fail" -> "Cable 2.1"
	"Cores #2 connected to system #1 fail" -> "Switch 2"
	"Cores #2 connected to system #1 fail" -> "Cable 1.2"
	"Cores #1 connected to system #1 fail" -> "Switch 1"
	"Cores #1 connected to system #1 fail" -> "Cable 1.1"
	"Server system #5 fails" -> "Server 5"
	"Server system #5 fails" -> "Cores connected to system #5 fail"
	"Server system #4 fails" -> "Server 4"
	"Server system #4 fails" -> "Cores connected to system #4 fail"
	"Cores connected to system #3 fail" -> "Cores #1 connected to system #3 fail"
	"Cores connected to system #3 fail" -> "Cores #2 connected to system #3 fail"
	"Cores connected to system #2 fail" -> "Cores #1 connected to system #2 fail"
	"Cores connected to system #2 fail" -> "Cores #2 connected to system #2 fail"
	"Cores connected to system #1 fail" -> "Cores #1 connected to system #1 fail"
	"Cores connected to system #1 fail" -> "Cores #2 connected to system #1 fail"
	"and_rr_System fails" -> "Server system #4 fails"
	"and_rr_System fails" -> "Server system #5 fails"
	"Server system #3 fails" -> "Server 3"
	"Server system #3 fails" -> "Cores connected to system #3 fail"
	"Server system #2 fails" -> "Server 2"
	"Server system #2 fails" -> "Cores connected to system #2 fail"
	"Server system #1 fails" -> "Server 1"
	"Server system #1 fails" -> "Cores connected to system #1 fail"
	"and_r_System fails" -> "Server system #3 fails"
	"and_r_System fails" -> "and_rr_System fails"
	"and_l_System fails" -> "Server system #1 fails"
	"and_l_System fails" -> "Server system #2 fails"
	"and__System fails" -> "and_l_System fails"
	"and__System fails" -> "and_r_System fails"
}