[
    {
        "name": "0_1_1_3_2_3"
    },
    {
        "name": "0_1_1_3_2_2"
    },
    {
        "name": "0_1_1_2_4_2"
    },
    {
        "name": "0_1_1_2_4_1"
    },
    {
        "name": "0_1_1_2_2_2"
    },
    {
        "name": "0_1_1_2_2_1"
    },
    {
        "name": "0_1_1_2_1_2"
    },
    {
        "name": "0_1_1_2_1_1"
    },
    {
        "name": "or_r_0_1_1_3_2",
        "causes": [
            "0_1_1_3_2_2",
            "0_1_1_3_2_3"
        ],
        "gate": {
            "type": "or"
        }
    },
    {
        "name": "0_1_1_3_2_1"
    },
    {
        "name": "0_1_1_2_4",
        "gate": {
            "type": "or"
        },
        "causes": [
            "0_1_1_2_4_1",
            "0_1_1_2_4_2"
        ]
    },
    {
        "name": "0_1_1_2_3"
    },
    {
        "name": "0_1_1_2_2",
        "gate": {
            "type": "or"
        },
        "causes": [
            "0_1_1_2_2_1",
            "0_1_1_2_2_2"
        ]
    },
    {
        "name": "0_1_1_2_1",
        "gate": {
            "type": "or"
        },
        "causes": [
            "0_1_1_2_1_1",
            "0_1_1_2_1_2"
        ]
    },
    {
        "name": "0_3_2_1_3"
    },
    {
        "name": "0_3_2_1_2"
    },
    {
        "name": "0_3_2_1_1_2"
    },
    {
        "name": "0_3_2_1_1_1"
    },
    {
        "name": "or__0_1_1_3_2",
        "causes": [
            "0_1_1_3_2_1",
            "or_r_0_1_1_3_2"
        ],
        "gate": {
            "type": "or"
        }
    },
    {
        "name": "0_1_1_3_1_1"
    },
    {
        "name": "or_r_0_1_1_2",
        "causes": [
            "0_1_1_2_3",
            "0_1_1_2_4"
        ],
        "gate": {
            "type": "or"
        }
    },
    {
        "name": "or_l_0_1_1_2",
        "causes": [
            "0_1_1_2_1",
            "0_1_1_2_2"
        ],
        "gate": {
            "type": "or"
        }
    },
    {
        "name": "or_r_0_3_2_1",
        "causes": [
            "0_3_2_1_2",
            "0_3_2_1_3"
        ],
        "gate": {
            "type": "or"
        }
    },
    {
        "name": "0_3_2_1_1",
        "gate": {
            "type": "or"
        },
        "causes": [
            "0_3_2_1_1_1",
            "0_3_2_1_1_2"
        ]
    },
    {
        "name": "0_1_1_3",
        "gate": {
            "type": "or"
        },
        "causes": [
            "0_1_1_3_1_1",
            "or__0_1_1_3_2"
        ]
    },
    {
        "name": "or__0_1_1_2",
        "causes": [
            "or_l_0_1_1_2",
            "or_r_0_1_1_2"
        ],
        "gate": {
            "type": "or"
        }
    },
    {
        "name": "or__0_3_2_1",
        "causes": [
            "0_3_2_1_1",
            "or_r_0_3_2_1"
        ],
        "gate": {
            "type": "or"
        }
    },
    {
        "name": "0_3_1"
    },
    {
        "name": "or_r_0_1_1",
        "causes": [
            "or__0_1_1_2",
            "0_1_1_3"
        ],
        "gate": {
            "type": "or"
        }
    },
    {
        "name": "0_1_1_1"
    },
    {
        "name": "0_4"
    },
    {
        "name": "0_3",
        "gate": {
            "type": "or"
        },
        "causes": [
            "0_3_1",
            "or__0_3_2_1"
        ]
    },
    {
        "name": "0_2"
    },
    {
        "name": "or__0_1_1",
        "causes": [
            "0_1_1_1",
            "or_r_0_1_1"
        ],
        "gate": {
            "type": "or"
        }
    },
    {
        "name": "or_r_0",
        "causes": [
            "0_3",
            "0_4"
        ],
        "gate": {
            "type": "or"
        }
    },
    {
        "name": "or_l_0",
        "causes": [
            "or__0_1_1",
            "0_2"
        ],
        "gate": {
            "type": "or"
        }
    },
    {
        "name": "or__0",
        "causes": [
            "or_l_0",
            "or_r_0"
        ],
        "gate": {
            "type": "or"
        }
    }
]