[
    {
        "name": "0_1_1_3_3_4"
    },
    {
        "name": "0_1_1_3_3_3"
    },
    {
        "name": "0_1_1_3_3_2"
    },
    {
        "name": "and_r_vote_3_0_1_1_3_3",
        "causes": [
            "0_1_1_3_3_3",
            "0_1_1_3_3_4"
        ],
        "gate": {
            "type": "and"
        }
    },
    {
        "name": "and_r_vote_2_0_1_1_3_3",
        "causes": [
            "0_1_1_3_3_3",
            "0_1_1_3_3_4"
        ],
        "gate": {
            "type": "and"
        }
    },
    {
        "name": "0_1_1_3_3_1"
    },
    {
        "name": "and_r_vote_1_0_1_1_3_3",
        "causes": [
            "0_1_1_3_3_2",
            "0_1_1_3_3_4"
        ],
        "gate": {
            "type": "and"
        }
    },
    {
        "name": "and_r_vote_0_0_1_1_3_3",
        "causes": [
            "0_1_1_3_3_2",
            "0_1_1_3_3_3"
        ],
        "gate": {
            "type": "and"
        }
    },
    {
        "name": "and__vote_3_0_1_1_3_3",
        "causes": [
            "0_1_1_3_3_2",
            "and_r_vote_3_0_1_1_3_3"
        ],
        "gate": {
            "type": "and"
        }
    },
    {
        "name": "and__vote_2_0_1_1_3_3",
        "causes": [
            "0_1_1_3_3_1",
            "and_r_vote_2_0_1_1_3_3"
        ],
        "gate": {
            "type": "and"
        }
    },
    {
        "name": "and__vote_1_0_1_1_3_3",
        "causes": [
            "0_1_1_3_3_1",
            "and_r_vote_1_0_1_1_3_3"
        ],
        "gate": {
            "type": "and"
        }
    },
    {
        "name": "and__vote_0_0_1_1_3_3",
        "causes": [
            "0_1_1_3_3_1",
            "and_r_vote_0_0_1_1_3_3"
        ],
        "gate": {
            "type": "and"
        }
    },
    {
        "name": "0_1_1_1_2_2"
    },
    {
        "name": "0_1_1_1_2_1"
    },
    {
        "name": "or_r_vote_or_0_1_1_3_3",
        "causes": [
            "and__vote_2_0_1_1_3_3",
            "and__vote_3_0_1_1_3_3"
        ],
        "gate": {
            "type": "or"
        }
    },
    {
        "name": "or_l_vote_or_0_1_1_3_3",
        "causes": [
            "and__vote_0_0_1_1_3_3",
            "and__vote_1_0_1_1_3_3"
        ],
        "gate": {
            "type": "or"
        }
    },
    {
        "name": "0_1_1_1_4_1"
    },
    {
        "name": "0_1_1_1_3_1"
    },
    {
        "name": "vote_or_0_1_1_1_2",
        "causes": [
            "0_1_1_1_2_1",
            "0_1_1_1_2_2"
        ],
        "gate": {
            "type": "or"
        }
    },
    {
        "name": "or__vote_or_0_1_1_3_3",
        "causes": [
            "or_l_vote_or_0_1_1_3_3",
            "or_r_vote_or_0_1_1_3_3"
        ],
        "gate": {
            "type": "or"
        }
    },
    {
        "name": "0_1_1_3_2"
    },
    {
        "name": "0_1_1_3_1_1"
    },
    {
        "name": "and_r_vote_3_0_1_1_1",
        "causes": [
            "0_1_1_1_3_1",
            "0_1_1_1_4_1"
        ],
        "gate": {
            "type": "and"
        }
    },
    {
        "name": "and_r_vote_2_0_1_1_1",
        "causes": [
            "0_1_1_1_3_1",
            "0_1_1_1_4_1"
        ],
        "gate": {
            "type": "and"
        }
    },
    {
        "name": "0_1_1_1_1_1"
    },
    {
        "name": "and_r_vote_1_0_1_1_1",
        "causes": [
            "vote_or_0_1_1_1_2",
            "0_1_1_1_4_1"
        ],
        "gate": {
            "type": "and"
        }
    },
    {
        "name": "and_r_vote_0_0_1_1_1",
        "causes": [
            "vote_or_0_1_1_1_2",
            "0_1_1_1_3_1"
        ],
        "gate": {
            "type": "and"
        }
    },
    {
        "name": "vote_2_0_1_1_3",
        "causes": [
            "0_1_1_3_2",
            "or__vote_or_0_1_1_3_3"
        ],
        "gate": {
            "type": "and"
        }
    },
    {
        "name": "vote_1_0_1_1_3",
        "causes": [
            "0_1_1_3_1_1",
            "or__vote_or_0_1_1_3_3"
        ],
        "gate": {
            "type": "and"
        }
    },
    {
        "name": "and__vote_3_0_1_1_1",
        "causes": [
            "vote_or_0_1_1_1_2",
            "and_r_vote_3_0_1_1_1"
        ],
        "gate": {
            "type": "and"
        }
    },
    {
        "name": "and__vote_2_0_1_1_1",
        "causes": [
            "0_1_1_1_1_1",
            "and_r_vote_2_0_1_1_1"
        ],
        "gate": {
            "type": "and"
        }
    },
    {
        "name": "and__vote_1_0_1_1_1",
        "causes": [
            "0_1_1_1_1_1",
            "and_r_vote_1_0_1_1_1"
        ],
        "gate": {
            "type": "and"
        }
    },
    {
        "name": "and__vote_0_0_1_1_1",
        "causes": [
            "0_1_1_1_1_1",
            "and_r_vote_0_0_1_1_1"
        ],
        "gate": {
            "type": "and"
        }
    },
    {
        "name": "0_1_4_1_3_3"
    },
    {
        "name": "0_1_4_1_3_2"
    },
    {
        "name": "0_1_3_2_1_3"
    },
    {
        "name": "0_1_3_2_1_2"
    },
    {
        "name": "0_1_3_2_1_1"
    },
    {
        "name": "0_1_3_1_2_4"
    },
    {
        "name": "0_1_3_1_2_3"
    },
    {
        "name": "0_1_3_1_2_2"
    },
    {
        "name": "0_1_3_1_2_1"
    },
    {
        "name": "or_r_vote_or_0_1_1_3",
        "causes": [
            "vote_1_0_1_1_3",
            "vote_2_0_1_1_3"
        ],
        "gate": {
            "type": "or"
        }
    },
    {
        "name": "vote_0_0_1_1_3",
        "causes": [
            "0_1_1_3_1_1",
            "0_1_1_3_2"
        ],
        "gate": {
            "type": "and"
        }
    },
    {
        "name": "or_r_vote_or_0_1_1_1",
        "causes": [
            "and__vote_2_0_1_1_1",
            "and__vote_3_0_1_1_1"
        ],
        "gate": {
            "type": "or"
        }
    },
    {
        "name": "or_l_vote_or_0_1_1_1",
        "causes": [
            "and__vote_0_0_1_1_1",
            "and__vote_1_0_1_1_1"
        ],
        "gate": {
            "type": "or"
        }
    },
    {
        "name": "and_r_0_1_4_1_3",
        "causes": [
            "0_1_4_1_3_2",
            "0_1_4_1_3_3"
        ],
        "gate": {
            "type": "and"
        }
    },
    {
        "name": "0_1_4_1_3_1"
    },
    {
        "name": "vote_2_0_1_3_2_1",
        "causes": [
            "0_1_3_2_1_2",
            "0_1_3_2_1_3"
        ],
        "gate": {
            "type": "and"
        }
    },
    {
        "name": "vote_1_0_1_3_2_1",
        "causes": [
            "0_1_3_2_1_1",
            "0_1_3_2_1_3"
        ],
        "gate": {
            "type": "and"
        }
    },
    {
        "name": "or_r_0_1_3_1_2",
        "causes": [
            "0_1_3_1_2_3",
            "0_1_3_1_2_4"
        ],
        "gate": {
            "type": "or"
        }
    },
    {
        "name": "or_l_0_1_3_1_2",
        "causes": [
            "0_1_3_1_2_1",
            "0_1_3_1_2_2"
        ],
        "gate": {
            "type": "or"
        }
    },
    {
        "name": "0_1_3_1_1_2"
    },
    {
        "name": "0_1_3_1_1_1"
    },
    {
        "name": "or__vote_or_0_1_1_3",
        "causes": [
            "vote_0_0_1_1_3",
            "or_r_vote_or_0_1_1_3"
        ],
        "gate": {
            "type": "or"
        }
    },
    {
        "name": "0_1_1_2"
    },
    {
        "name": "or__vote_or_0_1_1_1",
        "causes": [
            "or_l_vote_or_0_1_1_1",
            "or_r_vote_or_0_1_1_1"
        ],
        "gate": {
            "type": "or"
        }
    },
    {
        "name": "and__0_1_4_1_3",
        "causes": [
            "0_1_4_1_3_1",
            "and_r_0_1_4_1_3"
        ],
        "gate": {
            "type": "and"
        }
    },
    {
        "name": "0_1_4_1_2"
    },
    {
        "name": "or_r_vote_or_0_1_3_2_1",
        "causes": [
            "vote_1_0_1_3_2_1",
            "vote_2_0_1_3_2_1"
        ],
        "gate": {
            "type": "or"
        }
    },
    {
        "name": "vote_0_0_1_3_2_1",
        "causes": [
            "0_1_3_2_1_1",
            "0_1_3_2_1_2"
        ],
        "gate": {
            "type": "and"
        }
    },
    {
        "name": "or__0_1_3_1_2",
        "causes": [
            "or_l_0_1_3_1_2",
            "or_r_0_1_3_1_2"
        ],
        "gate": {
            "type": "or"
        }
    },
    {
        "name": "vote_or_0_1_3_1_1",
        "causes": [
            "0_1_3_1_1_1",
            "0_1_3_1_1_2"
        ],
        "gate": {
            "type": "or"
        }
    },
    {
        "name": "vote_2_0_1_1",
        "causes": [
            "0_1_1_2",
            "or__vote_or_0_1_1_3"
        ],
        "gate": {
            "type": "and"
        }
    },
    {
        "name": "vote_1_0_1_1",
        "causes": [
            "or__vote_or_0_1_1_1",
            "or__vote_or_0_1_1_3"
        ],
        "gate": {
            "type": "and"
        }
    },
    {
        "name": "or_r_0_1_4_1",
        "causes": [
            "0_1_4_1_2",
            "and__0_1_4_1_3"
        ],
        "gate": {
            "type": "or"
        }
    },
    {
        "name": "0_1_4_1_1"
    },
    {
        "name": "or__vote_or_0_1_3_2_1",
        "causes": [
            "vote_0_0_1_3_2_1",
            "or_r_vote_or_0_1_3_2_1"
        ],
        "gate": {
            "type": "or"
        }
    },
    {
        "name": "0_1_3_1",
        "gate": {
            "type": "and"
        },
        "causes": [
            "vote_or_0_1_3_1_1",
            "or__0_1_3_1_2"
        ]
    },
    {
        "name": "or_r_vote_or_0_1_1",
        "causes": [
            "vote_1_0_1_1",
            "vote_2_0_1_1"
        ],
        "gate": {
            "type": "or"
        }
    },
    {
        "name": "vote_0_0_1_1",
        "causes": [
            "or__vote_or_0_1_1_1",
            "0_1_1_2"
        ],
        "gate": {
            "type": "and"
        }
    },
    {
        "name": "or__0_1_4_1",
        "causes": [
            "0_1_4_1_1",
            "or_r_0_1_4_1"
        ],
        "gate": {
            "type": "or"
        }
    },
    {
        "name": "0_1_3",
        "gate": {
            "type": "or"
        },
        "causes": [
            "0_1_3_1",
            "or__vote_or_0_1_3_2_1"
        ]
    },
    {
        "name": "0_1_2"
    },
    {
        "name": "or__vote_or_0_1_1",
        "causes": [
            "vote_0_0_1_1",
            "or_r_vote_or_0_1_1"
        ],
        "gate": {
            "type": "or"
        }
    },
    {
        "name": "and_r_0_1",
        "causes": [
            "0_1_3",
            "or__0_1_4_1"
        ],
        "gate": {
            "type": "and"
        }
    },
    {
        "name": "and_l_0_1",
        "causes": [
            "or__vote_or_0_1_1",
            "0_1_2"
        ],
        "gate": {
            "type": "and"
        }
    },
    {
        "name": "and__0_1",
        "causes": [
            "and_l_0_1",
            "and_r_0_1"
        ],
        "gate": {
            "type": "and"
        }
    }
]