[
    {
        "name": "0_1_1_2_1_2"
    },
    {
        "name": "0_1_1_2_1_1"
    },
    {
        "name": "0_1_1_2_4_1"
    },
    {
        "name": "0_1_1_2_3"
    },
    {
        "name": "0_1_1_2_1",
        "gate": {
            "type": "and"
        },
        "causes": [
            "0_1_1_2_1_1",
            "0_1_1_2_1_2"
        ]
    },
    {
        "name": "and_r_vote_3_0_1_1_2",
        "causes": [
            "0_1_1_2_3",
            "0_1_1_2_4_1"
        ],
        "gate": {
            "type": "and"
        }
    },
    {
        "name": "and_r_vote_2_0_1_1_2",
        "causes": [
            "0_1_1_2_3",
            "0_1_1_2_4_1"
        ],
        "gate": {
            "type": "and"
        }
    },
    {
        "name": "and_r_vote_1_0_1_1_2",
        "causes": [
            "0_1_1_2_1",
            "0_1_1_2_4_1"
        ],
        "gate": {
            "type": "and"
        }
    },
    {
        "name": "and_r_vote_0_0_1_1_2",
        "causes": [
            "0_1_1_2_1",
            "0_1_1_2_3"
        ],
        "gate": {
            "type": "and"
        }
    },
    {
        "name": "and__vote_3_0_1_1_2",
        "causes": [
            "0_1_1_2_1",
            "and_r_vote_3_0_1_1_2"
        ],
        "gate": {
            "type": "and"
        }
    },
    {
        "name": "and__vote_2_0_1_1_2",
        "causes": [
            "0_1_1_2_1",
            "and_r_vote_2_0_1_1_2"
        ],
        "gate": {
            "type": "and"
        }
    },
    {
        "name": "and__vote_1_0_1_1_2",
        "causes": [
            "0_1_1_2_1",
            "and_r_vote_1_0_1_1_2"
        ],
        "gate": {
            "type": "and"
        }
    },
    {
        "name": "and__vote_0_0_1_1_2",
        "causes": [
            "0_1_1_2_1",
            "and_r_vote_0_0_1_1_2"
        ],
        "gate": {
            "type": "and"
        }
    },
    {
        "name": "or_r_vote_or_0_1_1_2",
        "causes": [
            "and__vote_2_0_1_1_2",
            "and__vote_3_0_1_1_2"
        ],
        "gate": {
            "type": "or"
        }
    },
    {
        "name": "or_l_vote_or_0_1_1_2",
        "causes": [
            "and__vote_0_0_1_1_2",
            "and__vote_1_0_1_1_2"
        ],
        "gate": {
            "type": "or"
        }
    },
    {
        "name": "0_1_1_3"
    },
    {
        "name": "or__vote_or_0_1_1_2",
        "causes": [
            "or_l_vote_or_0_1_1_2",
            "or_r_vote_or_0_1_1_2"
        ],
        "gate": {
            "type": "or"
        }
    },
    {
        "name": "0_1_2"
    },
    {
        "name": "or_r_0_1_1",
        "causes": [
            "or__vote_or_0_1_1_2",
            "0_1_1_3"
        ],
        "gate": {
            "type": "or"
        }
    },
    {
        "name": "0_1_1_1"
    },
    {
        "name": "0_1_4",
        "gate": {
            "type": "or"
        },
        "causes": [
            "0_1_2",
            "0_1_2"
        ]
    },
    {
        "name": "or__0_1_1",
        "causes": [
            "0_1_1_1",
            "or_r_0_1_1"
        ],
        "gate": {
            "type": "or"
        }
    },
    {
        "name": "and_r_0_1",
        "causes": [
            "or__0_1_1",
            "0_1_4"
        ],
        "gate": {
            "type": "and"
        }
    },
    {
        "name": "and_l_0_1",
        "causes": [
            "or__0_1_1",
            "0_1_2"
        ],
        "gate": {
            "type": "and"
        }
    },
    {
        "name": "0_4_2_2_2_3"
    },
    {
        "name": "0_4_2_2_2_2"
    },
    {
        "name": "0_2_2_3"
    },
    {
        "name": "and__0_1",
        "causes": [
            "and_l_0_1",
            "and_r_0_1"
        ],
        "gate": {
            "type": "and"
        }
    },
    {
        "name": "0_4_1_2_4"
    },
    {
        "name": "0_3"
    },
    {
        "name": "0_4_2_3_1_4"
    },
    {
        "name": "0_4_2_3_1_3"
    },
    {
        "name": "0_4_2_3_1_2"
    },
    {
        "name": "0_4_2_3_1_1"
    },
    {
        "name": "and_r_0_4_2_2_2",
        "causes": [
            "0_4_2_2_2_2",
            "0_4_2_2_2_3"
        ],
        "gate": {
            "type": "and"
        }
    },
    {
        "name": "0_4_2_2_2_1"
    },
    {
        "name": "0_4_2_2_1_3"
    },
    {
        "name": "0_4_2_2_1_2"
    },
    {
        "name": "or_r_vote_or_0_2_2",
        "causes": [
            "and__0_1",
            "0_2_2_3"
        ],
        "gate": {
            "type": "or"
        }
    },
    {
        "name": "and_r_vote_3_0_4_1_2",
        "causes": [
            "0_3",
            "0_4_1_2_4"
        ],
        "gate": {
            "type": "and"
        }
    },
    {
        "name": "and_r_vote_2_0_4_1_2",
        "causes": [
            "0_3",
            "0_4_1_2_4"
        ],
        "gate": {
            "type": "and"
        }
    },
    {
        "name": "and_r_vote_1_0_4_1_2",
        "causes": [
            "and__0_1",
            "0_4_1_2_4"
        ],
        "gate": {
            "type": "and"
        }
    },
    {
        "name": "and_r_vote_0_0_4_1_2",
        "causes": [
            "and__0_1",
            "0_3"
        ],
        "gate": {
            "type": "and"
        }
    },
    {
        "name": "or_r_0_4_2_3_1",
        "causes": [
            "0_4_2_3_1_3",
            "0_4_2_3_1_4"
        ],
        "gate": {
            "type": "or"
        }
    },
    {
        "name": "or_l_0_4_2_3_1",
        "causes": [
            "0_4_2_3_1_1",
            "0_4_2_3_1_2"
        ],
        "gate": {
            "type": "or"
        }
    },
    {
        "name": "0_4_2_2_3"
    },
    {
        "name": "and__0_4_2_2_2",
        "causes": [
            "0_4_2_2_2_1",
            "and_r_0_4_2_2_2"
        ],
        "gate": {
            "type": "and"
        }
    },
    {
        "name": "or_r_0_4_2_2_1",
        "causes": [
            "0_4_2_2_1_2",
            "0_4_2_2_1_3"
        ],
        "gate": {
            "type": "or"
        }
    },
    {
        "name": "0_4_2_2_1_1"
    },
    {
        "name": "0_2_3"
    },
    {
        "name": "or__vote_or_0_2_2",
        "causes": [
            "and__0_1",
            "or_r_vote_or_0_2_2"
        ],
        "gate": {
            "type": "or"
        }
    },
    {
        "name": "and__vote_3_0_4_1_2",
        "causes": [
            "and__0_1",
            "and_r_vote_3_0_4_1_2"
        ],
        "gate": {
            "type": "and"
        }
    },
    {
        "name": "and__vote_2_0_4_1_2",
        "causes": [
            "0_3",
            "and_r_vote_2_0_4_1_2"
        ],
        "gate": {
            "type": "and"
        }
    },
    {
        "name": "and__vote_1_0_4_1_2",
        "causes": [
            "0_3",
            "and_r_vote_1_0_4_1_2"
        ],
        "gate": {
            "type": "and"
        }
    },
    {
        "name": "and__vote_0_0_4_1_2",
        "causes": [
            "0_3",
            "and_r_vote_0_0_4_1_2"
        ],
        "gate": {
            "type": "and"
        }
    },
    {
        "name": "0_4_2_3_2_1"
    },
    {
        "name": "or__0_4_2_3_1",
        "causes": [
            "or_l_0_4_2_3_1",
            "or_r_0_4_2_3_1"
        ],
        "gate": {
            "type": "or"
        }
    },
    {
        "name": "and_r_0_4_2_2",
        "causes": [
            "and__0_4_2_2_2",
            "0_4_2_2_3"
        ],
        "gate": {
            "type": "and"
        }
    },
    {
        "name": "or__0_4_2_2_1",
        "causes": [
            "0_4_2_2_1_1",
            "or_r_0_4_2_2_1"
        ],
        "gate": {
            "type": "or"
        }
    },
    {
        "name": "or_r_0_2",
        "causes": [
            "or__vote_or_0_2_2",
            "0_2_3"
        ],
        "gate": {
            "type": "or"
        }
    },
    {
        "name": "or_r_vote_or_0_4_1_2",
        "causes": [
            "and__vote_2_0_4_1_2",
            "and__vote_3_0_4_1_2"
        ],
        "gate": {
            "type": "or"
        }
    },
    {
        "name": "or_l_vote_or_0_4_1_2",
        "causes": [
            "and__vote_0_0_4_1_2",
            "and__vote_1_0_4_1_2"
        ],
        "gate": {
            "type": "or"
        }
    },
    {
        "name": "vote_or_0_4_2_3",
        "causes": [
            "or__0_4_2_3_1",
            "0_4_2_3_2_1"
        ],
        "gate": {
            "type": "or"
        }
    },
    {
        "name": "and__0_4_2_2",
        "causes": [
            "or__0_4_2_2_1",
            "and_r_0_4_2_2"
        ],
        "gate": {
            "type": "and"
        }
    },
    {
        "name": "or__0_2",
        "causes": [
            "and__0_1",
            "or_r_0_2"
        ],
        "gate": {
            "type": "or"
        }
    },
    {
        "name": "or__vote_or_0_4_1_2",
        "causes": [
            "or_l_vote_or_0_4_1_2",
            "or_r_vote_or_0_4_1_2"
        ],
        "gate": {
            "type": "or"
        }
    },
    {
        "name": "or_r_0_4_2",
        "causes": [
            "and__0_4_2_2",
            "vote_or_0_4_2_3"
        ],
        "gate": {
            "type": "or"
        }
    },
    {
        "name": "0_4_2_1"
    },
    {
        "name": "or_r_0_4_1",
        "causes": [
            "or__0_2",
            "or__0_2"
        ],
        "gate": {
            "type": "or"
        }
    },
    {
        "name": "or_l_0_4_1",
        "causes": [
            "and__0_1",
            "or__vote_or_0_4_1_2"
        ],
        "gate": {
            "type": "or"
        }
    },
    {
        "name": "or__0_4_2",
        "causes": [
            "0_4_2_1",
            "or_r_0_4_2"
        ],
        "gate": {
            "type": "or"
        }
    },
    {
        "name": "or__0_4_1",
        "causes": [
            "or_l_0_4_1",
            "or_r_0_4_1"
        ],
        "gate": {
            "type": "or"
        }
    },
    {
        "name": "0_4",
        "gate": {
            "type": "or"
        },
        "causes": [
            "or__0_4_1",
            "or__0_4_2"
        ]
    },
    {
        "name": "vote_5_0",
        "causes": [
            "0_3",
            "0_4"
        ],
        "gate": {
            "type": "and"
        }
    },
    {
        "name": "vote_4_0",
        "causes": [
            "or__0_2",
            "0_4"
        ],
        "gate": {
            "type": "and"
        }
    },
    {
        "name": "vote_2_0",
        "causes": [
            "and__0_1",
            "0_4"
        ],
        "gate": {
            "type": "and"
        }
    },
    {
        "name": "vote_1_0",
        "causes": [
            "and__0_1",
            "0_3"
        ],
        "gate": {
            "type": "and"
        }
    },
    {
        "name": "or_rr_vote_or_0",
        "causes": [
            "vote_4_0",
            "vote_5_0"
        ],
        "gate": {
            "type": "or"
        }
    },
    {
        "name": "vote_3_0",
        "causes": [
            "or__0_2",
            "0_3"
        ],
        "gate": {
            "type": "and"
        }
    },
    {
        "name": "or_lr_vote_or_0",
        "causes": [
            "vote_1_0",
            "vote_2_0"
        ],
        "gate": {
            "type": "or"
        }
    },
    {
        "name": "vote_0_0",
        "causes": [
            "and__0_1",
            "or__0_2"
        ],
        "gate": {
            "type": "and"
        }
    },
    {
        "name": "or_r_vote_or_0",
        "causes": [
            "vote_3_0",
            "or_rr_vote_or_0"
        ],
        "gate": {
            "type": "or"
        }
    },
    {
        "name": "or_l_vote_or_0",
        "causes": [
            "vote_0_0",
            "or_lr_vote_or_0"
        ],
        "gate": {
            "type": "or"
        }
    },
    {
        "name": "or__vote_or_0",
        "causes": [
            "or_l_vote_or_0",
            "or_r_vote_or_0"
        ],
        "gate": {
            "type": "or"
        }
    }
]