[
    {
        "name": "0_1_4_3_1_4"
    },
    {
        "name": "0_1_4_3_1_3"
    },
    {
        "name": "0_1_4_3_1_2"
    },
    {
        "name": "0_1_4_3_1_1"
    },
    {
        "name": "0_1_4_3_2_2"
    },
    {
        "name": "0_1_4_3_2_1"
    },
    {
        "name": "or_r_0_1_4_3_1",
        "causes": [
            "0_1_4_3_1_3",
            "0_1_4_3_1_4"
        ],
        "gate": {
            "type": "or"
        }
    },
    {
        "name": "or_l_0_1_4_3_1",
        "causes": [
            "0_1_4_3_1_1",
            "0_1_4_3_1_2"
        ],
        "gate": {
            "type": "or"
        }
    },
    {
        "name": "0_1_4_2_1_4"
    },
    {
        "name": "0_1_4_2_1_3"
    },
    {
        "name": "0_1_4_2_1_2"
    },
    {
        "name": "0_1_4_2_1_1"
    },
    {
        "name": "0_1_4_3_2",
        "gate": {
            "type": "and"
        },
        "causes": [
            "0_1_4_3_2_1",
            "0_1_4_3_2_2"
        ]
    },
    {
        "name": "or__0_1_4_3_1",
        "causes": [
            "or_l_0_1_4_3_1",
            "or_r_0_1_4_3_1"
        ],
        "gate": {
            "type": "or"
        }
    },
    {
        "name": "0_1_3_2"
    },
    {
        "name": "0_1_3_1_1"
    },
    {
        "name": "or_r_0_1_4_2_1",
        "causes": [
            "0_1_4_2_1_3",
            "0_1_4_2_1_4"
        ],
        "gate": {
            "type": "or"
        }
    },
    {
        "name": "or_l_0_1_4_2_1",
        "causes": [
            "0_1_4_2_1_1",
            "0_1_4_2_1_2"
        ],
        "gate": {
            "type": "or"
        }
    },
    {
        "name": "vote_or_0_1_4_3",
        "causes": [
            "or__0_1_4_3_1",
            "0_1_4_3_2"
        ],
        "gate": {
            "type": "or"
        }
    },
    {
        "name": "0_1_4_4_1_1"
    },
    {
        "name": "0_1_3",
        "gate": {
            "type": "and"
        },
        "causes": [
            "0_1_3_1_1",
            "0_1_3_2"
        ]
    },
    {
        "name": "or__0_1_4_2_1",
        "causes": [
            "or_l_0_1_4_2_1",
            "or_r_0_1_4_2_1"
        ],
        "gate": {
            "type": "or"
        }
    },
    {
        "name": "vote_or_0_1_4_4",
        "causes": [
            "0_1_4_4_1_1",
            "vote_or_0_1_4_3"
        ],
        "gate": {
            "type": "or"
        }
    },
    {
        "name": "0_1_4_2",
        "gate": {
            "type": "or"
        },
        "causes": [
            "or__0_1_4_2_1",
            "0_1_3"
        ]
    },
    {
        "name": "vote_5_0_1_4",
        "causes": [
            "vote_or_0_1_4_3",
            "vote_or_0_1_4_4"
        ],
        "gate": {
            "type": "and"
        }
    },
    {
        "name": "vote_4_0_1_4",
        "causes": [
            "0_1_4_2",
            "vote_or_0_1_4_4"
        ],
        "gate": {
            "type": "and"
        }
    },
    {
        "name": "vote_2_0_1_4",
        "causes": [
            "0_1_3",
            "vote_or_0_1_4_4"
        ],
        "gate": {
            "type": "and"
        }
    },
    {
        "name": "vote_1_0_1_4",
        "causes": [
            "0_1_3",
            "vote_or_0_1_4_3"
        ],
        "gate": {
            "type": "and"
        }
    },
    {
        "name": "or_rr_vote_or_0_1_4",
        "causes": [
            "vote_4_0_1_4",
            "vote_5_0_1_4"
        ],
        "gate": {
            "type": "or"
        }
    },
    {
        "name": "vote_3_0_1_4",
        "causes": [
            "0_1_4_2",
            "vote_or_0_1_4_3"
        ],
        "gate": {
            "type": "and"
        }
    },
    {
        "name": "or_lr_vote_or_0_1_4",
        "causes": [
            "vote_1_0_1_4",
            "vote_2_0_1_4"
        ],
        "gate": {
            "type": "or"
        }
    },
    {
        "name": "vote_0_0_1_4",
        "causes": [
            "0_1_3",
            "0_1_4_2"
        ],
        "gate": {
            "type": "and"
        }
    },
    {
        "name": "or_r_vote_or_0_1_4",
        "causes": [
            "vote_3_0_1_4",
            "or_rr_vote_or_0_1_4"
        ],
        "gate": {
            "type": "or"
        }
    },
    {
        "name": "or_l_vote_or_0_1_4",
        "causes": [
            "vote_0_0_1_4",
            "or_lr_vote_or_0_1_4"
        ],
        "gate": {
            "type": "or"
        }
    },
    {
        "name": "or__vote_or_0_1_4",
        "causes": [
            "or_l_vote_or_0_1_4",
            "or_r_vote_or_0_1_4"
        ],
        "gate": {
            "type": "or"
        }
    },
    {
        "name": "0_1_2"
    },
    {
        "name": "0_1_1"
    },
    {
        "name": "or_r_0_1",
        "causes": [
            "0_1_3",
            "or__vote_or_0_1_4"
        ],
        "gate": {
            "type": "or"
        }
    },
    {
        "name": "or_l_0_1",
        "causes": [
            "0_1_1",
            "0_1_2"
        ],
        "gate": {
            "type": "or"
        }
    },
    {
        "name": "or__0_1",
        "causes": [
            "or_l_0_1",
            "or_r_0_1"
        ],
        "gate": {
            "type": "or"
        }
    }
]