[
    {
        "name": "ConduciveDL"
    },
    {
        "name": "DisinfectantConcDL"
    },
    {
        "name": "ConduciveDBP"
    },
    {
        "name": "DisinfectantConcDBP"
    },
    {
        "name": "CrossConnect"
    },
    {
        "name": "Maintenance"
    },
    {
        "name": "and_r_DisinfectantLoss",
        "causes": [
            "DisinfectantConcDL",
            "ConduciveDL"
        ],
        "gate": {
            "type": "and"
        }
    },
    {
        "name": "OrganicDL"
    },
    {
        "name": "and_r_DBP",
        "causes": [
            "DisinfectantConcDBP",
            "ConduciveDBP"
        ],
        "gate": {
            "type": "and"
        }
    },
    {
        "name": "OrganicDBP"
    },
    {
        "name": "Contaminants"
    },
    {
        "name": "LOPressure"
    },
    {
        "name": "or_r_Pathway",
        "causes": [
            "Maintenance",
            "CrossConnect"
        ],
        "gate": {
            "type": "or"
        }
    },
    {
        "name": "PipesGaskets"
    },
    {
        "name": "ConduciveBiofilm"
    },
    {
        "name": "Detention"
    },
    {
        "name": "ConducivePerm"
    },
    {
        "name": "Hydrocarbon"
    },
    {
        "name": "Monitoring"
    },
    {
        "name": "PhysGeo"
    },
    {
        "name": "ConduciveCorr"
    },
    {
        "name": "MetallicCorr"
    },
    {
        "name": "ConduciveLeach"
    },
    {
        "name": "MetallicLeach"
    },
    {
        "name": "and__DisinfectantLoss",
        "causes": [
            "OrganicDL",
            "and_r_DisinfectantLoss"
        ],
        "gate": {
            "type": "and"
        }
    },
    {
        "name": "and__DBP",
        "causes": [
            "OrganicDBP",
            "and_r_DBP"
        ],
        "gate": {
            "type": "and"
        }
    },
    {
        "name": "and_r_Intrusion",
        "causes": [
            "LOPressure",
            "Contaminants"
        ],
        "gate": {
            "type": "and"
        }
    },
    {
        "name": "or__Pathway",
        "causes": [
            "PipesGaskets",
            "or_r_Pathway"
        ],
        "gate": {
            "type": "or"
        }
    },
    {
        "name": "and_r_Biofilm",
        "causes": [
            "Detention",
            "ConduciveBiofilm"
        ],
        "gate": {
            "type": "and"
        }
    },
    {
        "name": "Organic"
    },
    {
        "name": "and_r_Permeation",
        "causes": [
            "Hydrocarbon",
            "ConducivePerm"
        ],
        "gate": {
            "type": "and"
        }
    },
    {
        "name": "Plastic"
    },
    {
        "name": "Vulnerability",
        "gate": {
            "type": "or"
        },
        "causes": [
            "PhysGeo",
            "Monitoring"
        ]
    },
    {
        "name": "Threat"
    },
    {
        "name": "Corrosion",
        "gate": {
            "type": "and"
        },
        "causes": [
            "MetallicCorr",
            "ConduciveCorr"
        ]
    },
    {
        "name": "Leaching",
        "gate": {
            "type": "and"
        },
        "causes": [
            "MetallicLeach",
            "ConduciveLeach"
        ]
    },
    {
        "name": "Staff"
    },
    {
        "name": "TreatmentUnits"
    },
    {
        "name": "Disinfectant",
        "gate": {
            "type": "or"
        },
        "causes": [
            "and__DBP",
            "and__DisinfectantLoss"
        ]
    },
    {
        "name": "and__Intrusion",
        "causes": [
            "or__Pathway",
            "and_r_Intrusion"
        ],
        "gate": {
            "type": "and"
        }
    },
    {
        "name": "and__Biofilm",
        "causes": [
            "Organic",
            "and_r_Biofilm"
        ],
        "gate": {
            "type": "and"
        }
    },
    {
        "name": "and__Permeation",
        "causes": [
            "Plastic",
            "and_r_Permeation"
        ],
        "gate": {
            "type": "and"
        }
    },
    {
        "name": "Contamination",
        "gate": {
            "type": "and"
        },
        "causes": [
            "Threat",
            "Vulnerability"
        ]
    },
    {
        "name": "Deterioration",
        "gate": {
            "type": "or"
        },
        "causes": [
            "Leaching",
            "Corrosion"
        ]
    },
    {
        "name": "Treatment",
        "gate": {
            "type": "and"
        },
        "causes": [
            "TreatmentUnits",
            "Staff"
        ]
    },
    {
        "name": "Source"
    },
    {
        "name": "or_rr_System",
        "causes": [
            "and__Intrusion",
            "Disinfectant"
        ],
        "gate": {
            "type": "or"
        }
    },
    {
        "name": "or_rl_System",
        "causes": [
            "and__Permeation",
            "and__Biofilm"
        ],
        "gate": {
            "type": "or"
        }
    },
    {
        "name": "or_lr_System",
        "causes": [
            "Deterioration",
            "Contamination"
        ],
        "gate": {
            "type": "or"
        }
    },
    {
        "name": "POE",
        "gate": {
            "type": "and"
        },
        "causes": [
            "Source",
            "Treatment"
        ]
    },
    {
        "name": "or_r_System",
        "causes": [
            "or_rl_System",
            "or_rr_System"
        ],
        "gate": {
            "type": "or"
        }
    },
    {
        "name": "or_l_System",
        "causes": [
            "POE",
            "or_lr_System"
        ],
        "gate": {
            "type": "or"
        }
    },
    {
        "name": "or__System",
        "causes": [
            "or_l_System",
            "or_r_System"
        ],
        "gate": {
            "type": "or"
        }
    }
]