[
    {
        "name": "E4"
    },
    {
        "name": "E3"
    },
    {
        "name": "E2"
    },
    {
        "name": "E1"
    },
    {
        "name": "I2",
        "gate": {
            "type": "or"
        },
        "causes": [
            "E3",
            "E4"
        ]
    },
    {
        "name": "I1",
        "gate": {
            "type": "or"
        },
        "causes": [
            "E1",
            "E2"
        ]
    },
    {
        "name": "SF",
        "gate": {
            "type": "and"
        },
        "causes": [
            "I1",
            "I2"
        ]
    }
]