[
    {
        "name": "E4"
    },
    {
        "name": "E3"
    },
    {
        "name": "or_r_I1",
        "causes": [
            "E3",
            "E4"
        ],
        "gate": {
            "type": "or"
        }
    },
    {
        "name": "E2"
    },
    {
        "name": "or__I1",
        "causes": [
            "E2",
            "or_r_I1"
        ],
        "gate": {
            "type": "or"
        }
    },
    {
        "name": "E1"
    },
    {
        "name": "SF",
        "gate": {
            "type": "and"
        },
        "causes": [
            "E1",
            "or__I1"
        ]
    }
]